Test,Raw,AC3,AC4,Cl1,Cl2,MSm,MSy,PHA,RHT,RHQ
1,0.424,0.078,0.079,0.125,0.134,0.182,0.055,0.32,0.389,0.391
2,0.165,0.02,0.007,0.198,0.076,0.116,0.25,0.126,0.127,0.14
3,0.587,0.01,0.016,0.595,0.373,0.868,1.152,0.094,0.56,0.563
4,1.192,0.058,0.029,0.823,0.491,0.916,0.217,0.009,1.174,1.193
5,0.953,0.477,0.282,0.984,0.725,0.834,0.664,0.166,0.953,0.957
6,0.547,0.316,0.248,0.199,0.181,0.073,0.267,0.137,0.552,0.548
7,0.358,0.08,0.208,0.163,0.065,0.571,2.24,0.185,0.355,0.349
8,0.056,0.087,0.001,0.148,0.097,0.112,0.095,0.007,0.074,0.078
9,0.519,0.367,0.346,0.32,0.256,0.561,0.098,0.219,0.506,0.504
10,0.64,0.092,0.123,0.192,0.361,0.112,0.084,0.181,0.659,0.645
11,0.447,0.279,0.267,0.303,0.361,0.422,0.365,0.08,0.45,0.445
12,0.547,0.116,0.066,0.157,0.292,0.077,0.026,0.064,0.51,0.503
13,0.445,0.039,0.16,0.631,0.581,0.124,0.142,0.071,0.442,0.443
14,0.123,0.385,0.346,0.236,0.217,0.306,0.437,0.008,0.13,0.128
15,0.321,0.082,0.156,0.327,0.169,0.273,0.476,0.138,0.313,0.315
16,0.043,0.215,0.087,0.292,0.254,0.27,0.218,0.312,0.05,0.049
17,0.899,0.026,0.063,0.763,0.375,0.66,0.368,0.175,0.833,0.835
18,0.15,0.062,0.2,0.181,0.215,0.007,0.109,0.062,0.094,0.085
19,0.343,0.038,0.127,0.349,0.137,0.026,0.134,0.102,0.355,0.346
20,0.101,0.265,0.195,0.078,0.151,0.055,0.299,0.021,0.071,0.076
21,0.587,0.048,0.161,0.417,0.338,0.505,0.167,0.203,0.545,0.555
22,0.263,0.256,0.224,0.277,0.28,0.456,1.392,0.08,0.253,0.244
23,0.181,0.428,0.117,0.048,0.057,0.019,0.002,0.23,0.179,0.184
24,0.089,0.625,0.285,0.41,0.507,0.657,0.721,0.369,0.098,0.098
25,0.119,0.029,0.052,0.172,0.086,0.102,0.098,0.045,0.129,0.135
26,0.041,0.154,0.105,0.112,0.088,0.039,0.041,0.182,0.058,0.048
27,0.289,0.187,0.147,0.202,0.01,0.027,0.116,0.28,0.264,0.278
28,0.93,0.179,0.071,0.162,0.561,0.444,0.412,0.269,0.923,0.921
29,0.637,0.036,0.045,0.432,0.432,0.498,0.408,0.211,0.597,0.606
30,0.793,0.091,0.034,0.702,0.838,0.641,2.131,0.142,0.803,0.812
31,0.979,0.018,0.033,0.242,0.212,0.22,0.244,0.037,0.955,0.957
32,0.438,0.016,0.009,0.049,0.035,0.088,0.313,0.16,0.45,0.452
33,1.134,0.374,0.061,1.07,0.998,0.764,0.24,0.236,1.131,1.12
34,1.474,0.185,0.134,0.824,0.833,0.707,1.009,0.274,1.46,1.477
35,0.573,0.01,0.295,0.477,0.4,0.173,0.184,0.153,0.567,0.549
36,0.573,0.013,0.016,0.14,0.374,0.093,0.024,0.057,0.575,0.571
37,0.876,0.075,0.074,0.481,0.362,0.3,0.457,0.033,0.846,0.857
38,0.374,0.086,0.136,0.099,0.123,0.187,0.042,0.125,0.382,0.387
39,1.005,0.012,0.005,0.408,0.499,0.206,0.256,0.19,0.982,0.986
40,0.618,0.069,0.125,0.375,0.118,0.266,0.117,0.078,0.63,0.618
41,0.228,0.02,0.052,0.026,0.182,0.156,0.007,0.087,0.228,0.214
42,0.064,0.077,0.002,0.095,0.04,0.015,0.003,0.053,0.077,0.075
43,0.662,0.11,0.077,0.144,0.375,0.608,0.227,0.021,0.681,0.65
44,0.217,0.391,0.202,0.216,0.089,0.064,0.091,0.059,0.181,0.174
45,0.127,0.101,0.09,0.112,0.099,0.03,0.38,0.093,0.135,0.121
46,0.253,0.057,0.054,0.436,0.185,0.344,0.867,0.06,0.256,0.269
47,0.691,0.221,0.461,0.135,0.104,0.047,1.285,0.466,0.696,0.697
48,0.629,0.147,0.012,0.543,0.329,0.373,0.198,0.017,0.607,0.601
49,0.147,0.023,0.031,0.047,0.005,0,0.129,0.03,0.168,0.168
50,0.093,0.08,0.086,0.068,0.156,0.047,1.277,0.036,0.08,0.072
51,0.216,0.127,0.126,0.013,0.044,0.19,0.027,0.216,0.213,0.209
52,0.707,0.087,0.062,0.277,0.38,0.306,0.129,0.098,0.695,0.686
53,0.368,0.022,0.03,0.083,0.265,0.127,0.098,0.345,0.33,0.328
54,0.084,0.042,0.212,0.056,0.152,0.045,0.149,0.194,0.075,0.075
55,0.076,0.214,0.162,0.113,0.106,0.389,0.245,0.051,0.023,0.016
56,0.212,0.05,0.053,0.054,0.082,0.037,0.196,0.206,0.156,0.157
57,0.115,0.138,0.354,0.047,0.075,0.129,0.209,0.039,0.088,0.09
58,0.255,0.046,0.072,0.04,0.023,0.133,0.197,0.081,0.268,0.266
59,1.229,0.061,0.12,0.329,0.886,0.208,0.172,0.357,1.23,1.238
60,0.8,0.007,0,0.219,0.212,0.021,0.024,0.074,0.832,0.813
61,0.01,0.006,0.124,0.005,0.141,0.421,0.209,0.123,0.002,0.011
62,0.394,0.213,0.005,0.087,0.17,0.011,0.266,0.134,0.395,0.4
63,0.14,0.124,0.11,0.069,0.079,0.018,0.209,0.072,0.102,0.103
64,0.502,0.019,0.036,0.316,0.295,0.498,0.479,0.006,0.476,0.48
65,0.029,0.102,0.24,0.013,0.063,0.199,0.091,0.021,0.058,0.042
66,0.483,0.193,0.192,0.576,0.381,0.022,0.279,0.213,0.5,0.499
67,0.007,0.048,0.04,0.513,0.069,0.194,0.684,0.004,0.035,0.034
68,0.901,0.052,0.133,0.323,0.376,0.086,0.133,0.131,0.916,0.909
69,0.005,0.128,0.202,0.137,0.091,0.404,0.355,0.028,0.002,0.006
70,0.212,0.073,0.119,0.061,0.108,0.085,0.209,0.054,0.234,0.255
71,0.562,0.371,0.187,0.349,0.435,0.338,0.197,0.311,0.56,0.546
72,0.09,0.191,0.13,0.143,0.085,0.279,0.372,0.27,0.093,0.092
73,0.248,0.162,0.035,0.166,0.326,0.012,0.243,0.167,0.23,0.219
74,1.128,0.015,0.075,0.882,0.928,0.833,0.607,0.108,1.087,1.093
75,0.712,0.091,0.096,0.129,0.067,0.037,0.109,0.061,0.769,0.775
76,0.616,0.066,0.03,0.028,0.071,0.07,0.05,0.038,0.6,0.617
77,0.089,0.038,0.043,0.064,0.112,0.197,0.337,0.247,0.093,0.096
78,0.588,0.098,0.02,0.206,0.419,0.3,0.057,0.083,0.585,0.565
79,0.688,0.298,0.245,0.503,0.347,0.638,0.333,0.246,0.688,0.701
80,0.244,0.028,0.076,0.458,0.231,0.7,1.195,0.171,0.25,0.25
81,0.141,0.019,0.165,0.025,0.116,0.307,0.141,0.104,0.142,0.139
82,0.099,0.041,0.042,0.071,0.012,0.028,0.009,0.058,0.088,0.101
83,1.093,0.041,0.156,0.451,0.584,0.298,0.073,0.155,1.051,1.056
84,0.474,0.178,0.213,0.102,0.195,0.059,0.042,0.056,0.503,0.52
85,0.356,0.021,0.098,0.303,0.188,0.314,0.237,0.028,0.377,0.384
86,0.344,0.299,0.214,0.374,0.27,0.261,0.467,0.076,0.334,0.328
87,0.051,0.049,0.062,0.274,0.06,0.24,0.117,0.045,0.064,0.068
88,0.23,0.348,0.443,0.598,0.226,0.576,0.718,0.477,0.24,0.235
89,0.978,0.234,0.211,0.527,0.378,0.513,0.325,0.201,0.991,0.987
90,0.302,0.152,0.068,0.337,0.204,0.217,0.035,0.112,0.304,0.298
91,0.372,0.365,0.298,0.444,0.282,0.181,0.057,0.104,0.411,0.409
92,1.027,0.044,0.053,0.358,0.492,0.02,0.101,0.186,1.006,1.011
93,0.254,0.396,0.351,0.264,0.304,0.032,0.264,0.262,0.243,0.252
94,0.395,0.041,0.032,0.16,0.221,0.163,0.103,0.048,0.394,0.394
95,1.191,0.207,0.12,0.105,0.462,0.033,0.343,0.162,1.196,1.19
96,0.233,0.509,0.051,0.596,0.241,0.409,0.555,0.076,0.231,0.221
97,0.32,0.067,0.077,0.008,0.038,0.332,0.059,0.07,0.324,0.335
98,0.557,0.142,0.04,0.607,0.492,0.675,0.412,0.964,0.529,0.534
99,0.743,0.45,0.299,0.66,0.336,0.564,0.34,0.225,0.701,0.731
100,0.449,0.096,0.017,0.029,0.233,0.113,0.03,0.135,0.426,0.445
101,0.424,0.17,0.111,0.167,0.083,0.046,0.563,0.242,0.362,0.36
102,0.165,0.17,0.189,0.299,0.247,0.14,0.139,0.241,0.077,0.099
103,0.587,0.808,0.124,1.089,0.989,1.049,1.09,0.332,0.564,0.566
104,1.192,0.261,0.077,0.642,0.418,1.163,0.088,0.374,1.171,1.183
105,0.953,0.374,0.016,1.02,0.795,0.757,2.019,0.037,0.916,0.93
106,0.547,0.087,0.094,0.281,0.117,0.454,0.027,0.107,0.566,0.552
107,0.358,0.061,0.033,0.183,0.09,0.156,0.106,0.037,0.338,0.347
108,0.056,0.363,0.3,0.046,0.163,0.268,0.132,0.168,0.063,0.074
109,0.519,0.648,0.262,0.452,0.29,0.482,0.003,0.241,0.511,0.518
110,0.64,0.319,0.286,0.154,0.067,0.101,0.124,0.151,0.629,0.64
111,0.447,0.01,0.039,0.121,0.16,0.313,0.227,0.226,0.434,0.442
112,0.547,0.196,0.251,0.269,0.055,0.404,0.173,0.324,0.538,0.543
113,0.445,0.334,0.017,0.409,0.257,0.518,0.302,0.088,0.443,0.436
114,0.123,0.355,0.179,0.235,0.204,0.28,0.074,0.347,0.124,0.144
115,0.321,0.05,0.024,0.096,0.141,0.183,0.322,0.106,0.267,0.276
116,0.043,0.309,0.329,0.382,0.254,0.122,0.455,0.061,0.031,0.031
117,0.899,0.164,0.237,0.736,0.528,0.714,0.881,0.558,0.919,0.926
118,0.15,0.09,0.023,0.086,0.207,0.272,0.309,0.079,0.138,0.133
119,0.343,0.275,0.384,0.609,0.4,0.446,0.306,0.21,0.357,0.362
120,0.101,0.338,0.269,0.222,0.194,0.2,0.235,0.101,0.072,0.067
121,0.587,0.017,0.146,0.455,0.269,0.795,0.464,0.214,0.567,0.568
122,0.263,0.491,0.441,0.869,0.756,0.756,1.031,0.667,0.187,0.21
123,0.181,0.079,0.071,0.06,0.08,0.012,0.234,0.112,0.197,0.193
124,0.089,0.922,0.899,0.672,0.693,0.446,0.271,0.421,0.123,0.125
125,0.119,0.258,0.314,0.115,0.169,0.106,0.04,0.12,0.127,0.139
126,0.041,0.047,0.077,0.033,0.042,0.193,0.011,0.06,0.073,0.061
127,0.289,0.297,0.149,0.058,0.177,0.603,0.483,0.084,0.29,0.288
128,0.93,0.117,0.235,0.157,0.474,0.152,0.933,0.025,0.938,0.932
129,0.637,0.033,0.046,0.519,0.434,0.589,0.606,0.119,0.641,0.643
130,0.793,0.388,0.397,0.661,0.677,0.58,0.219,0.343,0.779,0.793
131,0.979,0.339,0.224,0.254,0.162,0.274,0.627,0.404,0.957,0.965
132,0.438,0.355,0.281,0.157,0.579,0.268,0.271,0.09,0.338,0.352
133,1.134,0.12,0.09,0.943,0.854,0.36,1.034,0.1,1.147,1.129
134,1.474,0.268,0.479,1.176,0.874,1.03,0.173,0.107,1.495,1.498
135,0.573,0.487,0.288,0.363,0.485,0.331,0.473,0.465,0.607,0.591
136,0.573,0.177,0.204,0.152,0.464,0.365,0.039,0.117,0.593,0.599
137,0.876,0.378,0.356,0.453,0.477,0.381,0.704,0.157,0.848,0.856
138,0.374,0.07,0.045,0.283,0.146,0.148,0.028,0.213,0.372,0.383
139,1.005,0.094,0.115,0.442,0.276,0.634,0.025,0.01,1.011,0.989
140,0.618,0.265,0.001,0.196,0.254,0.339,0.038,0.055,0.609,0.602
141,0.228,0.222,0.024,0.23,0.238,0.065,0.052,0.233,0.215,0.218
142,0.064,0.129,0.1,0.048,0.049,0.034,0.054,0.007,0.059,0.083
143,0.662,0.107,0.094,0.7,0.219,0.607,0.352,0.207,0.656,0.656
144,0.217,0.106,0.02,0.139,0.032,0.267,0.529,0.097,0.2,0.196
145,0.127,0.221,0.152,0.241,0.021,0.05,0.039,0.321,0.095,0.086
146,0.253,0.213,0.082,0.577,0.075,0.598,0.145,0.239,0.265,0.264
147,0.691,0.285,0.185,0.325,0.106,0.005,0.419,0.715,0.677,0.684
148,0.629,0.14,0.263,0.306,0.562,0.658,0.283,0.05,0.543,0.554
149,0.147,0.081,0.057,0.154,0.097,0.147,0.116,0.207,0.169,0.158
150,0.093,0.047,0.079,0.013,0.187,0.23,0.034,0.057,0.075,0.07
151,0.216,0.048,0.097,0.015,0.037,0.06,0.137,0.221,0.181,0.177
152,0.707,0.197,0.15,0.247,0.461,0.352,0.621,0.136,0.725,0.723
153,0.368,0.179,0.351,0.916,0.606,0.766,2.291,0.108,0.344,0.356
154,0.084,0.001,0.15,0.18,0.057,0.002,0.223,0.176,0.105,0.114
155,0.076,0.413,0.281,0.373,0.16,0.292,0.574,0.448,0.071,0.073
156,0.212,0.41,0.253,0.203,0.225,0.06,0.023,0.265,0.204,0.2
157,0.115,0.3,0.214,0.088,0.08,0.016,0.025,0.146,0.103,0.104
158,0.255,0.165,0.259,0.013,0.211,0.246,0.835,0.315,0.206,0.205
159,1.229,0.011,0.067,0.289,0.113,0.049,0.141,0.673,1.269,1.253
160,0.8,0.085,0.021,0.159,0.201,0.277,0.685,0.102,0.84,0.836
161,0.01,0.042,0.019,0.333,0.181,0.046,0.031,0.164,0,0.002
162,0.394,0.148,0.226,0.185,0.365,0.135,0.076,0.314,0.345,0.339
163,0.14,0.362,0.445,0.141,0.148,0.252,0.694,0.676,0.087,0.071
164,0.502,0.227,0.105,0.495,0.318,0.708,0.063,0.268,0.547,0.544
165,0.029,0.628,0.332,0.022,0.237,0.016,0.292,0.103,0.03,0.021
166,0.483,0.055,0.084,0.667,0.676,0.258,0.103,0.23,0.517,0.504
167,0.007,0.149,0.104,0.276,0.131,0.156,0.336,0.183,0.034,0.054
168,0.901,0.763,0.582,0.151,0.346,0.237,2.506,0.418,0.898,0.921
169,0.005,0.103,0.008,0.254,0.111,0.082,0.131,0.004,0.021,0.028
170,0.212,0.32,0.345,0.043,0.203,0.08,0.192,0.002,0.227,0.249
171,0.562,0.234,0.093,0.331,0.276,0.511,0.13,0.267,0.499,0.508
172,0.09,0.127,0.056,0.123,0.049,0.005,0.199,0.015,0.096,0.1
173,0.248,0.526,0.349,0.054,0.231,0.106,0.659,0.191,0.237,0.242
174,1.128,0.978,1.101,1.127,1.025,0.8,1.144,0.521,1.112,1.115
175,0.712,0.14,0.053,0.072,0.088,0.284,0.069,0.36,0.702,0.703
176,0.616,0.101,0.017,0.081,0.045,0.112,0.151,0.14,0.635,0.617
177,0.089,0.357,0.538,0.237,0.256,0.026,0.065,0.487,0.118,0.123
178,0.588,0.112,0.081,0.682,0.137,0.384,0.408,0.358,0.592,0.584
179,0.688,0.275,0.241,0.577,0.415,0.213,0.212,0.107,0.664,0.654
180,0.244,0.167,0.093,0.039,0.079,0.606,0.454,0.144,0.262,0.279
181,0.141,0.324,0.277,0.044,0.057,0.219,0.278,0.1,0.146,0.155
182,0.099,0.059,0.011,0.366,0.088,0.104,0.033,0.285,0.069,0.068
183,1.093,0.05,0.07,0.711,0.558,0.585,0.407,0.047,1.108,1.088
184,0.474,0.19,0.178,0.27,0.252,0.15,0.307,0.467,0.437,0.451
185,0.356,0.091,0.093,0.222,0.208,0.452,0.278,0.094,0.394,0.384
186,0.344,0.552,0.639,0.529,0.432,0.634,0.12,0.334,0.344,0.354
187,0.051,0.034,0.135,0.143,0.091,0.247,0.174,0.019,0.018,0.007
188,0.23,0.322,0.101,0.307,0.32,0.549,0.746,0.394,0.21,0.213
189,0.978,0.044,0.031,0.545,0.625,0.089,0.705,0.037,1.023,1.01
190,0.302,0.231,0.121,0.63,0.846,0.363,0.35,0.291,0.33,0.331
191,0.372,0.149,0.064,0.253,0.101,0.311,0.13,0.46,0.371,0.382
192,1.027,0.286,0.007,0.369,0.346,0.263,0.155,0.1,0.99,0.99
193,0.254,0.055,0.015,0.333,0.297,0.265,0.256,0.349,0.218,0.226
194,0.395,0.156,0.148,0.029,0.03,0.257,0.032,0.228,0.386,0.384
195,1.191,0.023,0.362,0.016,0.223,0.076,0.108,0.056,0.99,0.986
196,0.233,0.168,0.043,0.458,0.255,0.399,0.189,0.026,0.271,0.27
197,0.32,0.137,0.133,0.313,0.027,0.13,1.35,0.074,0.286,0.278
198,0.557,0.299,0.234,0.444,0.328,0.495,0.739,0.324,0.524,0.515
199,0.743,0.066,0.162,0.668,0.428,0.91,0.924,0.282,0.731,0.738
200,0.449,0.018,0.159,0.063,0.023,0.164,0.682,0.123,0.444,0.441
201,0.424,0.665,0.315,0.314,0.23,0.046,0.038,0.137,0.441,0.447
202,0.165,0.479,0.399,0.381,0.435,0.168,0.288,0.183,0.068,0.086
203,0.587,0.211,0.831,1.923,2.125,0.977,1.198,1.059,0.553,0.54
204,1.192,0.692,0.199,0.187,0.249,1.016,0.838,0.1,1.029,1.024
205,0.953,0.319,0.796,1.178,0.462,0.792,0.523,0.648,0.948,0.928
206,0.547,0.451,0.222,0.743,0.087,0.421,0.533,0.296,0.545,0.531
207,0.358,0.334,0.065,0.051,0.327,0.249,0.063,0.607,0.373,0.376
208,0.056,0.205,0.421,0.168,0.208,0.001,0.089,0.177,0.061,0.054
209,0.519,0.332,0.353,0.325,0.629,0.661,0.816,0.393,0.465,0.463
210,0.64,1.179,1.084,0.695,0.839,0.275,0.29,0.633,0.796,0.807
211,0.447,0.24,0.1,0.11,0.242,0.533,0.464,1.105,0.335,0.332
212,0.547,0.751,0.919,0.32,0.132,0.186,1.126,0.323,0.585,0.568
213,0.445,0.395,0.651,0.16,0.156,0.25,0.391,0.478,0.463,0.458
214,0.123,0.097,0.012,0.162,0.276,0.057,0.418,0.236,0.096,0.107
215,0.321,0.146,0.189,0.609,0.142,0.113,0.405,0.052,0.29,0.276
216,0.043,0.186,0.201,0.401,0.442,0.132,0.054,0.437,0.055,0.06
217,0.899,0.453,0.553,0.521,0.469,0.785,0.868,0.422,0.831,0.851
218,0.15,0.281,0.1,0.027,0.069,0.285,1.237,0.183,0.155,0.144
219,0.343,0.72,0.727,0.477,0.041,0.309,0.379,1.125,0.348,0.348
220,0.101,0.385,0.437,0.386,0.401,0.678,0.612,0.218,0.146,0.114
221,0.587,0.456,0.067,0.238,0.189,0.884,0.635,0.047,0.559,0.547
222,0.263,0.284,0.064,0.097,0.018,0.813,0.882,0.207,0.287,0.285
223,0.181,0.159,0.411,0.027,0.349,0.026,0.902,0.055,0.07,0.057
224,0.089,0.241,0.334,0.214,0.26,0.174,0.249,1.148,0.154,0.14
225,0.119,0.472,0.479,0.457,0.297,0.249,0.61,0.724,0.106,0.111
226,0.041,0.354,0.405,0.415,0.133,0.087,0.288,0.083,0.059,0.078
227,0.289,0.114,0.078,0.247,0.342,0.257,1.281,0.553,0.299,0.3
228,0.93,0.573,0.563,0.077,0.174,0.095,0.521,0.467,0.896,0.897
229,0.637,0.008,0.222,0.401,0.462,0.402,0.56,0.535,0.538,0.544
230,0.793,1.004,0.81,0.995,1.009,0.656,0.328,0.177,0.781,0.779
231,0.979,1.329,0.962,0.996,0.904,0.955,0.113,0.417,0.848,0.875
232,0.438,0.543,0.469,0.003,0.477,0.013,0.578,0.045,0.359,0.365
233,1.134,0.098,0.745,0.446,0.508,0.556,0.487,0.002,1.099,1.09
234,1.474,1.14,0.954,0.929,1.178,1.414,2.374,0.329,1.629,1.613
235,0.573,0.699,0.246,0.295,0.554,0.276,0.182,0.064,0.659,0.646
236,0.573,0.004,0.129,0.505,0.23,0.14,0.293,0.234,0.538,0.527
237,0.876,0.98,0.883,0.544,0.533,0.384,0.334,0.063,0.845,0.842
238,0.374,0.468,0.495,0.57,0.499,0.579,0.568,0.55,0.336,0.333
239,1.005,0.362,0.599,0.43,0.107,0.865,0.707,0.026,0.988,0.995
240,0.618,0.085,0.042,0.194,0.214,0.524,0.284,0.1,0.605,0.593
241,0.228,0.559,0.42,0.065,0.061,0.198,0.377,0.116,0.118,0.115
242,0.064,0.34,0.056,0.283,0.41,0.018,0.309,0.151,0.2,0.208
243,0.662,0.141,0.178,0.502,0.419,0.696,0.046,0.67,0.56,0.563
244,0.217,0.438,0.202,0.193,0.269,0.185,0.259,0.427,0.238,0.231
245,0.127,0.345,0.16,0.059,0.248,0.222,0.235,0.25,0.165,0.179
246,0.253,0.63,0.713,0.479,0.301,0.136,0.082,0.092,0.18,0.169
247,0.691,0.142,0.717,0.826,0.999,0.188,1.199,0.822,0.664,0.655
248,0.629,0.066,0.038,0.489,0.315,0.748,0.396,0.205,0.697,0.671
249,0.147,0.188,0.209,0.196,0.094,0.424,0.458,0.163,0.017,0.004
250,0.093,0.124,0.198,0.286,0.531,0.13,0.017,0.001,0.101,0.126
251,0.216,0.287,0.27,0.106,0.047,0.082,0.418,0.439,0.104,0.086
252,0.707,0.158,0.522,0.389,0.497,0.597,0.486,0.607,0.962,0.957
253,0.368,0.831,0.798,0.055,0.174,0.328,1.243,0.148,0.361,0.37
254,0.084,0.621,0.001,0.19,0.355,0.325,0.733,0.526,0.208,0.23
255,0.076,0.076,0.076,0.767,0.812,0.263,0.232,0.45,0.159,0.174
256,0.212,0.181,0.14,0.121,0.051,0.008,0.212,0.624,0.182,0.185
257,0.115,0.11,0.162,0.025,0.023,0.062,0.112,0.146,0.106,0.11
258,0.255,0.385,0.455,0.632,0.801,0.625,0.854,0.313,0.15,0.155
259,1.229,0.277,0.038,0.173,0.004,0.4,0.623,0.433,1.152,1.137
260,0.8,0.298,0.41,0.011,0.027,0.136,0.196,0.026,0.772,0.768
261,0.01,0.036,0.629,0.082,0.327,0.207,0.169,0.184,0.153,0.18
262,0.394,0.297,0.344,0.185,0.231,0.131,0.157,0.062,0.326,0.34
263,0.14,0.495,0.533,0.166,0.152,0.265,0.429,0.025,0.161,0.192
264,0.502,0.532,0.304,1.151,1.163,0.615,0.27,0.849,0.483,0.477
265,0.029,0.119,0.103,0.124,0.235,0.111,0.099,0.542,0.102,0.081
266,0.483,0.709,0.63,0.253,0.401,0.475,0.111,0.069,0.57,0.561
267,0.007,0.413,0.122,0.107,0.08,0.044,0.079,0.097,0.136,0.141
268,0.901,0.899,0.893,1.125,1.066,0.496,1.172,0.972,0.966,0.985
269,0.005,0.117,0.512,0.948,0.869,0.437,0.332,1.604,0.025,0.026
270,0.212,0.31,0.423,0.432,0.5,0.15,0.212,0.212,0.224,0.226
271,0.562,0.357,0.371,0.581,0.546,0.323,0.134,0.656,0.499,0.492
272,0.09,0.581,0.575,1.009,0.807,0.28,0.08,1.049,0.266,0.252
273,0.248,0.066,0.065,0.261,0.641,0.203,0.375,0.053,0.334,0.322
274,1.128,1.235,1.057,0.735,0.177,1.026,0.815,0.56,1.101,1.095
275,0.712,0.615,0.288,0.568,0.489,0.471,0.432,0.745,0.744,0.743
276,0.616,0.367,0.198,0.127,0.346,0.607,0.101,0.376,0.673,0.666
277,0.089,0.614,0.499,0.22,0.262,0.019,0.4,0.229,0.145,0.146
278,0.588,1.625,1.266,1.172,1.487,0.705,0.035,0.598,0.614,0.619
279,0.688,0.163,0.054,0.144,0.3,0.65,0.091,0.502,0.703,0.703
280,0.244,0.262,0.319,0.098,0.232,0.807,0.671,0.038,0.203,0.207
281,0.141,0.223,0.185,0.013,0.1,0.085,0.024,0.25,0.062,0.064
282,0.099,0.171,0.107,0.249,0.037,0.002,0.052,0.147,0.019,0.037
283,1.093,0.443,0.392,0.689,0.507,0.968,0.573,0.204,0.823,0.803
284,0.474,0.056,0.417,0.281,0.232,0.432,0.128,0.157,0.457,0.431
285,0.356,0.109,0.087,0.042,0.062,0.322,0.234,0.625,0.34,0.336
286,0.344,0.222,0.423,1.16,1.355,0.635,0.043,0.261,0.407,0.419
287,0.051,0.095,0.148,0.474,0.546,0.072,0.444,0.759,0.052,0.07
288,0.23,0.242,0.038,0.017,0.111,0.286,0.058,0.893,0.301,0.302
289,0.978,0.687,0.741,0.208,0.177,0.729,0.506,0.648,0.985,0.988
290,0.302,0.589,0.095,0.338,0.362,0.311,0.576,0.638,0.327,0.334
291,0.372,0.685,0.635,0.362,0.315,0.221,0.01,0.271,0.322,0.306
292,1.027,0.032,0.067,0.099,0.007,0.304,0.439,0.092,0.934,0.914
293,0.254,0.861,0.363,0.187,0.467,0.134,0.876,0.534,0.195,0.182
294,0.395,0.178,0.277,0.222,0.175,0.17,0.486,0.205,0.366,0.376
295,1.191,0.104,0.075,0.044,0.282,0.883,0.159,0.187,1.036,1.03
296,0.233,0.352,0.366,0.474,0.525,0.59,0.535,0.569,0.352,0.334
297,0.32,0.339,0.053,0.154,0.273,0.081,0.056,0.303,0.247,0.243
298,0.557,0.93,0.847,0.86,0.808,1.25,1.393,0.465,0.583,0.577
299,0.743,0.592,0.104,0.197,0.129,0.224,0.146,0.151,0.807,0.822
300,0.449,0.56,0.458,0.04,0.113,0.269,0.103,0.03,0.439,0.422
301,0.075,0.142,0.09,0.138,0.071,0.082,0.099,0.127,0.087,0.084
302,0.346,0.02,0.014,0.16,0.124,0.074,0.116,0.114,0.305,0.302
303,0.332,0.001,0.012,0.19,0.088,0.322,0.016,0.086,0.314,0.318
304,0.323,0.001,0.029,0.254,0.097,0.145,0.167,0.039,0.326,0.325
305,0.182,0.074,0.06,0.052,0.014,0.035,0.039,0.103,0.179,0.178
306,0.069,0.001,0.054,0.045,0.01,0.11,0.026,0.112,0.056,0.05
307,0.74,0.067,0.088,0.112,0.168,0.103,0.067,0.067,0.666,0.661
308,0.087,0.038,0.008,0.024,0.019,0.12,0.061,0.174,0.086,0.085
309,0.072,0.084,0.101,0.18,0.114,0.072,0.194,0.267,0.054,0.061
310,0.174,0.134,0.093,0.109,0.308,0.188,0.113,0.109,0.16,0.161
311,0.689,0.027,0.078,0.272,0.132,0.271,0.029,0.077,0.615,0.611
312,0.108,0.024,0.032,0.001,0.002,0.011,0.159,0.095,0.054,0.055
313,0.028,0.038,0.035,0.031,0.155,0.134,0.037,0.174,0.04,0.038
314,0.455,0.063,0.031,0.043,0.103,0.153,0.003,0.089,0.443,0.442
315,0.131,0.077,0.012,0.109,0.012,0.199,0.065,0.061,0.118,0.116
316,0.271,0.009,0.025,0.044,0.013,0.036,0.027,0.06,0.242,0.24
317,0.144,0.059,0.023,0.182,0.054,0.134,0.169,0.12,0.116,0.12
318,0.034,0.019,0.011,0.028,0.012,0.176,0.066,0.044,0.015,0.008
319,0.473,0.018,0.001,0.342,0.264,0.319,0.092,0.137,0.432,0.426
320,0.019,0.017,0.008,0.176,0.104,0.077,0.261,0.03,0.088,0.089
321,0.459,0.046,0.018,0.349,0.314,0.184,0.001,0.13,0.447,0.451
322,0.187,0.009,0.036,0.071,0.127,0.154,0.212,0.009,0.22,0.22
323,0.141,0.027,0.018,0.077,0.028,0.031,0.428,0.086,0.097,0.104
324,0.064,0.07,0.057,0.234,0.121,0.253,0.08,0.11,0.057,0.061
325,0.064,0.054,0.06,0.131,0.09,0.071,0.055,0.1,0.085,0.086
326,0.543,0.198,0.128,0.001,0.109,0.043,0.003,0.248,0.482,0.486
327,0.249,0.003,0.032,0.162,0.109,0.202,0.361,0.316,0.261,0.259
328,0.453,0.12,0.07,0.39,0.299,0.24,0.214,0.088,0.456,0.466
329,0.424,0.055,0.039,0.2,0.221,0.043,0.025,0.015,0.434,0.431
330,0.354,0.067,0.03,0.135,0.198,0.086,0.015,0.101,0.298,0.301
331,0.165,0.045,0.021,0.001,0.087,0.067,0.055,0.084,0.149,0.151
332,0.602,0.087,0.063,0.087,0.015,0.199,0.127,0.001,0.616,0.618
333,0.425,0.015,0.042,0.284,0.197,0.105,0.017,0.017,0.411,0.417
334,0.646,0.081,0.029,0.223,0.232,0.074,0.174,0.145,0.642,0.645
335,0.308,0.065,0.005,0.26,0.097,0.124,0.055,0.071,0.277,0.276
336,0.446,0.029,0.055,0.258,0.164,0.256,0.045,0.013,0.417,0.414
337,0.082,0.1,0.078,0.102,0.037,0.059,0.279,0.065,0.093,0.094
338,0.461,0.031,0.011,0.103,0.185,0.068,0.013,0.086,0.421,0.417
339,0.084,0.058,0.109,0.077,0.094,0.051,0.136,0.167,0.058,0.067
340,0.472,0.022,0.012,0.297,0.252,0.214,0.313,0.016,0.452,0.455
341,0.137,0.062,0.053,0.026,0.08,0.059,0.104,0.038,0.12,0.11
342,0.263,0.122,0.147,0.223,0.166,0.361,0.357,0.133,0.274,0.275
343,0.33,0.103,0,0.106,0.075,0.09,0.104,0.021,0.316,0.311
344,0.324,0.086,0.075,0.012,0.009,0.125,0.146,0.213,0.295,0.296
345,0.134,0.011,0.012,0.122,0.091,0.227,0.167,0.043,0.125,0.127
346,0.208,0.05,0.04,0.239,0.077,0.019,0.132,0.038,0.2,0.204
347,0.132,0.136,0.125,0.014,0.053,0.165,0.02,0.084,0.15,0.149
348,0.005,0.085,0.02,0.016,0.037,0.192,0.059,0.265,0.019,0.015
349,0.085,0.006,0.004,0.15,0.205,0.132,0.079,0.117,0.073,0.067
350,0.197,0.001,0.048,0.243,0.103,0.087,0.055,0.121,0.18,0.177
351,0.16,0.059,0.112,0.029,0.078,0.126,0.22,0.103,0.132,0.132
352,0.036,0.018,0.049,0.11,0.02,0.084,0.011,0.046,0.041,0.04
353,0.508,0.099,0.107,0.313,0.265,0.408,0.4,0.11,0.511,0.512
354,0.067,0.004,0.083,0.143,0.202,0.115,0.318,0.023,0.049,0.047
355,0.268,0.059,0.059,0.121,0.207,0.104,0.126,0.061,0.214,0.211
356,0.184,0.004,0.001,0.053,0.064,0.112,0.006,0.103,0.177,0.177
357,0.338,0.037,0.01,0.361,0.194,0.17,0.162,0.089,0.282,0.285
358,0.122,0.145,0.105,0.223,0.089,0.157,0.143,0.064,0.109,0.118
359,0.41,0.018,0.023,0.131,0.138,0.112,0.026,0.128,0.377,0.371
360,0.186,0.051,0.067,0.197,0.193,0.094,0.031,0.053,0.165,0.165
361,0.257,0.036,0.028,0.029,0.016,0.036,0.084,0.015,0.245,0.252
362,0.317,0.025,0.06,0.063,0.114,0.138,0.022,0.025,0.344,0.347
363,0.2,0.027,0.019,0.2,0.103,0.074,0.023,0.091,0.167,0.16
364,0.131,0.007,0.008,0.213,0.04,0.129,0.093,0.216,0.089,0.088
365,0.054,0.064,0.111,0.021,0.007,0.028,0.03,0.126,0.071,0.069
366,0.09,0.183,0.18,0.125,0.037,0.157,0.024,0.102,0.08,0.078
367,0.028,0.062,0.058,0.056,0.069,0.055,0.071,0.1,0.013,0.019
368,0.203,0.023,0.026,0.014,0.027,0.17,0.136,0.14,0.204,0.208
369,0.105,0.031,0.019,0.034,0.03,0.072,0.036,0.029,0.093,0.08
370,0.396,0.063,0.004,0.134,0.172,0.189,0.171,0.002,0.362,0.367
371,0.259,0.007,0.037,0.122,0.039,0.145,0.027,0.022,0.185,0.188
372,0.417,0.063,0.049,0.071,0.063,0.222,0.216,0.027,0.43,0.43
373,0.671,0.085,0.084,0.197,0.209,0.221,0.013,0.296,0.65,0.657
374,0.526,0.008,0.109,0.252,0.247,0.306,0.169,0.069,0.516,0.524
375,0.197,0.102,0.078,0.256,0.156,0.031,0.334,0.053,0.202,0.203
376,0.283,0.017,0.036,0.162,0.107,0.282,0.032,0.012,0.302,0.304
377,0.306,0.021,0.03,0.152,0.173,0.139,0.111,0.036,0.283,0.282
378,0.113,0.032,0,0.068,0.091,0.066,0.072,0.063,0.099,0.119
379,0.493,0.189,0.147,0.121,0.165,0.302,0.095,0.348,0.454,0.454
380,0.017,0.062,0.084,0.043,0.017,0.054,0.149,0.145,0.006,0.013
381,0.057,0.015,0.004,0.004,0.077,0.11,0.048,0.049,0.075,0.08
382,0.345,0.023,0.005,0.011,0.174,0.086,0.106,0.105,0.333,0.329
383,0.587,0.294,0.184,0.368,0.207,0.25,0.33,0.253,0.574,0.574
384,0.575,0.169,0.1,0.294,0.118,0.224,0.007,0.203,0.55,0.549
385,0.142,0.039,0.012,0.054,0.064,0.26,0.349,0.081,0.17,0.169
386,0.057,0.036,0.043,0.071,0.033,0.036,0.045,0.065,0.071,0.068
387,0.733,0.036,0.049,0.174,0.153,0.154,0.015,0.068,0.726,0.719
388,0.175,0.015,0.033,0,0.033,0.109,0.004,0,0.179,0.173
389,0.245,0.027,0.09,0.018,0.108,0.028,0.006,0.005,0.208,0.209
390,0.609,0.026,0.023,0.346,0.251,0.38,0.665,0.123,0.568,0.57
391,0.16,0.161,0.15,0.121,0.104,0.176,0.207,0.172,0.184,0.178
392,0.052,0.066,0.073,0.057,0.05,0.067,0.036,0.007,0.057,0.06
393,0.089,0.012,0.032,0.052,0.024,0.029,0.027,0.009,0.085,0.087
394,0.076,0.064,0.081,0.021,0.11,0.101,0.126,0.143,0.071,0.071
395,0.054,0.075,0.045,0.04,0.023,0.002,0.006,0.115,0.061,0.054
396,0.148,0.013,0.024,0.067,0.145,0.084,0.087,0.191,0.148,0.162
397,0.403,0.22,0.139,0.398,0.349,0.301,0.333,0.178,0.402,0.402
398,0.129,0.003,0.005,0.042,0.04,0.024,0.083,0.106,0.104,0.091
399,0.567,0.143,0.142,0.386,0.197,0.18,0.056,0.011,0.476,0.476
400,0.254,0.189,0.079,0.164,0.243,0.214,0.133,0.071,0.259,0.26
401,0.594,0.25,0.082,0.415,0.333,0.564,0.413,0.325,0.345,0.359
402,0.457,0.219,0.191,0.494,0.544,0.396,0.299,0.256,0.655,0.651
403,0.487,0.032,0.017,0.284,0.169,0.337,0.095,0.029,0.272,0.313
404,0.406,0.457,0.5,0.453,0.447,0.411,0.469,0.236,0.463,0.466
405,0.494,0.711,0.471,0.7,0.755,0.505,0.445,0.548,0.727,0.713
406,0.415,0.078,0.157,0.433,0.215,0.484,0.317,0.214,0.168,0.199
407,0.562,0.026,0.047,0.146,0.266,0.448,0.57,0.227,0.291,0.322
408,0.685,0.535,0.324,0.612,0.473,0.748,0.432,0.638,0.414,0.402
409,0.531,0.235,0.457,0.44,0.325,0.338,0.179,0.197,0.432,0.476
410,0.227,0.346,0.403,0.503,0.518,0.232,0.008,0.329,0.509,0.516
411,0.404,0.3,0.253,0.28,0.322,0.168,0.181,0.003,0.45,0.452
412,0.204,0.425,0.463,0.454,0.419,0.336,0.581,0.517,0.582,0.586
413,0.365,0.26,0.139,0.208,0.285,0.328,0.329,0.22,0.153,0.199
414,0.384,0.401,0.4,0.554,0.374,0.246,0.279,0.095,0.734,0.727
415,0.36,0.368,0.406,0.113,0.137,0.284,0.379,0.615,0.121,0.118
416,0.534,0.314,0.432,0.589,0.541,0.47,0.222,0.245,0.504,0.496
417,0.183,0.28,0.317,0.126,0.169,0.273,0.491,0.386,0.228,0.222
418,0.358,0.293,0.446,0.349,0.28,0.337,0.563,0.284,0.232,0.232
419,0.647,0.33,0.628,0.555,0.508,0.609,0.322,0.204,0.641,0.644
420,0.503,0.27,0.348,0.265,0.245,0.448,0.34,0.015,0.285,0.277
421,0.599,0.421,0.419,0.037,0.15,0.407,0.374,0.073,0.416,0.415
422,0.291,0.239,0.197,0.006,0.04,0.147,0.281,0.255,0.349,0.347
423,0.107,0.046,0.148,0.161,0.069,0.16,0.083,0.112,0.138,0.133
424,0.428,0.14,0.255,0.421,0.4,0.37,0.594,0.112,0.449,0.439
425,0.299,0.436,0.361,0.047,0.209,0.319,0.334,0.326,0.177,0.167
426,0.48,0.303,0.298,0.31,0.635,0.253,0.154,0.331,0.818,0.849
427,0.205,0.62,0.542,0.164,0.114,0.277,0.315,0.299,0.043,0.053
428,0.567,0.653,0.486,0.273,0.206,0.503,0.445,0.067,0.172,0.171
429,0.249,0.488,0.196,0.289,0.22,0.359,0.462,0.192,0.155,0.162
430,0.315,0.118,0.14,0.663,0.56,0.177,0.155,0.018,0.815,0.815
431,0.431,0.575,0.511,0.051,0.478,0.411,0.178,0.145,0.574,0.579
432,0.181,0.357,0.259,0.407,0.391,0.176,0.358,0.237,0.668,0.678
433,0.392,0.241,0.213,0.174,0.147,0.523,0.46,0.235,0.272,0.268
434,1.002,0.187,0.183,1.186,1.375,0.638,0.484,0.089,2.25,2.261
435,0.325,0.052,0.11,0.201,0.016,0.448,0.194,0.014,0.25,0.25
436,0.465,0.306,0.354,0.576,0.476,0.384,0.071,0.6,0.829,0.832
437,0.386,0.271,0.296,0.325,0.314,0.307,0.306,0.268,0.354,0.352
438,0.386,0.596,0.461,0.279,0.305,0.268,0.49,0.127,0.342,0.343
439,0.459,0.323,0.241,0.328,0.15,0.316,0.33,0.038,0.016,0.052
440,0.549,0.096,0.062,1.016,1.653,0.548,0.239,0.108,1.867,1.865
441,0.26,0.222,0.301,0.102,0.089,0.346,0.402,0.201,0.057,0.061
442,0.321,0.375,0.392,0.518,0.358,0.222,0.384,0.068,0.865,0.86
443,0.44,0.334,0.253,0.304,0.238,0.466,0.586,0.074,0.11,0.119
444,0.522,0.438,0.187,0.539,0.41,0.587,0.519,0.638,0.39,0.401
445,0.273,0.14,0.281,0.055,0.182,0.089,0.343,0.065,0.321,0.33
446,0.148,0.104,0.134,0.06,0.071,0.387,0.291,0.002,0.159,0.131
447,0.451,0.027,0,0.15,0.176,0.399,0.412,0.109,0.126,0.133
448,0.608,0.114,0.316,0.274,0.309,0.553,0.548,0.534,0.038,0.017
449,0.234,0.31,0.385,0.179,0.191,0.343,0.395,0.439,0.21,0.24
450,0.499,0.549,0.4,0.417,0.452,0.385,0.17,0.376,0.578,0.551
451,0.224,0.259,0.232,0.491,0.437,0.243,0.267,0.173,0.607,0.616
452,0.196,0.084,0.207,0.231,0.194,0.108,0.207,0.2,0.263,0.26
453,0.246,0.195,0.215,0.107,0.164,0.314,0.342,0.063,0.061,0.041
454,0.449,0.364,0.313,0.558,0.668,0.306,0.313,0.086,0.935,0.93
455,0.234,0.287,0.219,0.328,0.304,0.23,0.275,0.329,0.518,0.523
456,0.446,0.036,0.105,0.673,1.075,0.221,0.237,0.192,1.333,1.341
457,0.522,0.353,0.383,0.241,0.393,0.3,0.478,0.058,0.204,0.222
458,0.346,0.043,0.147,0.351,0.434,0.334,0.488,0.234,0.591,0.595
459,0.278,0.152,0.284,0.234,0.276,0.354,0.457,0.371,0.084,0.065
460,0.587,0.297,0.259,0.32,0.421,0.55,0.486,0.508,0.701,0.723
461,0.311,0.478,0.462,0.575,0.483,0.294,0.628,0.024,0.448,0.437
462,0.082,0.178,0.276,0.623,0.334,0.121,0.194,0.1,1.199,1.207
463,0.214,0.322,0.222,0.159,0.098,0.213,0.334,0.13,0.023,0.017
464,0.522,0.253,0.323,0.45,0.422,0.632,0.297,0.682,0.342,0.344
465,0.412,0.5,0.369,0.305,0.33,0.227,0.44,0.079,0.354,0.347
466,0.393,0.312,0.292,0.608,0.704,0.371,0.383,0.118,0.867,0.862
467,0.158,0.482,0.251,0.246,0.386,0.247,0.097,0.098,0.523,0.525
468,0.468,0.071,0.148,0.521,0.507,0.269,0.656,0.822,1.093,1.117
469,0.382,0.436,0.361,0.642,0.615,0.364,0.503,0.287,0.574,0.576
470,0.183,0.143,0.059,0.155,0.042,0.231,0.411,0.055,0.222,0.22
471,0.175,0.25,0.21,0.199,0.21,0.213,0.474,0.145,0.126,0.165
472,0.601,0.291,0.179,0.487,0.51,0.353,0.26,0.251,0.468,0.467
473,0.176,0.064,0.246,0.214,0.139,0.18,0.406,0.001,0.216,0.236
474,0.426,0.283,0.298,0.535,0.576,0.5,0.503,0.178,0.957,0.952
475,0.683,0.486,0.385,0.59,0.655,0.591,0.366,0.246,0.98,0.972
476,0.196,0.093,0.016,0.457,0.483,0.158,0.221,0.33,0.481,0.499
477,0.637,0.375,0.441,0.326,0.33,0.469,0.302,0.235,0.025,0.03
478,0.198,0.025,0.018,0.158,0.558,0.2,0.263,0.057,1.015,1.025
479,0.53,0.515,0.134,0.61,0.501,0.6,0.395,0.3,0.458,0.457
480,0.23,0.332,0.319,0.019,0.016,0.068,0.048,0.061,0.084,0.087
481,0.396,0.392,0.387,0.55,0.476,0.459,0.346,0.627,0.544,0.541
482,0.442,0.688,0.494,0.714,0.695,0.498,0.402,0.785,0.809,0.83
483,0.419,0.088,0.117,0.757,0.778,0.385,0.388,0.17,1.15,1.151
484,0.339,0.588,0.48,0.5,0.434,0.514,0.657,0.285,0.488,0.49
485,0.489,0.664,0.561,0.628,0.743,0.241,0.029,0.005,0.996,0.989
486,0.442,0.342,0.399,0.289,0.245,0.526,0.278,0.411,0.2,0.212
487,0.151,0.055,0.065,0.24,0.2,0.2,0.181,0.042,0.445,0.49
488,0.384,0.505,0.342,0.662,0.839,0.587,0.318,0.417,1.142,1.136
489,0.274,0.248,0.001,0.157,0.16,0.438,0.536,0.078,0.112,0.127
490,0.591,0.532,0.279,0.386,0.394,0.487,0.606,0.522,0.313,0.343
491,0.464,0.411,0.347,0.342,0.362,0.308,0.282,0.079,0.37,0.333
492,0.271,0.421,0.296,0.437,0.355,0.306,0.336,0.376,0.005,0.043
493,0.34,0.001,0.035,0.277,0.372,0.344,0.334,0.084,0.591,0.577
494,0.215,0.347,0.441,0.303,0.916,0.165,0.211,0.069,0.998,1.014
495,0.436,0.241,0.273,0.284,0.109,0.37,0.241,0.004,0.118,0.125
496,0.475,0.338,0.415,0.313,0.395,0.355,0.263,0.343,0.241,0.26
497,0.502,0.265,0.155,0.391,0.471,0.426,0.361,0.258,0.559,0.566
498,0.536,0.412,0.354,0.198,0.236,0.314,0.098,0.209,0.316,0.319
499,0.274,0.319,0.376,0.256,0.275,0.094,0.01,0.149,0.321,0.313
500,0.311,0.561,0.406,0.2,0.205,0.259,0.172,0.328,0.055,0.03
501,1.079,0.544,0.659,0.734,0.527,0.862,0.305,0.551,0.614,0.615
502,0.788,0.199,0.249,0.818,0.914,0.602,0.669,0.35,1.523,1.531
503,0.457,0.561,0.543,0.674,0.724,0.427,0.413,0.54,0.518,0.518
504,0.609,0.594,0.536,0.603,0.657,0.539,0.395,0.671,0.842,0.855
505,1.097,0.901,0.787,0.969,1.115,0.943,0.72,0.702,1.325,1.322
506,1.065,0.41,0.617,1.39,1.367,0.796,0.649,0.659,1.744,1.757
507,0.463,0.316,0.403,0.544,0.533,0.572,0.309,0.308,0.629,0.628
508,0.543,1.514,0.885,0.184,0.25,0.782,0.7,0.39,0.065,0.055
509,0.937,0.879,0.862,1.349,1.529,1.022,0.931,0.695,1.742,1.756
510,0.859,0.765,0.713,1.147,1.211,0.993,1.256,0.703,1.126,1.138
511,0.928,1.165,0.876,0.819,0.904,0.979,0.873,1.185,0.868,0.881
512,0.715,0.123,0.358,0.621,0.695,0.48,0.682,0.502,1.011,1.024
513,0.615,0.459,0.504,0.757,0.794,0.586,0.189,0.325,0.819,0.837
514,0.776,0.489,0.578,0.601,0.607,0.832,0.66,0.297,0.115,0.128
515,1.036,1.154,0.819,1.167,1.02,0.979,0.979,1.411,0.866,0.883
516,0.947,0.965,1.07,1.128,1.103,0.907,1.036,0.797,1.283,1.464
517,0.943,0.763,0.272,1.045,1.038,1.072,1.432,0.857,1.614,1.61
518,0.496,0.706,0.441,0.684,0.46,0.376,0.306,0.618,1.005,1.006
519,0.474,0.414,0.484,0.926,0.866,0.52,0.606,0.632,1.038,1.029
520,0.71,0.704,0.55,0.427,0.456,0.513,0.2,0.745,0.391,0.406
521,0.724,0.642,0.587,0.706,1.047,0.617,0.518,0.309,1.282,1.274
522,0.751,0.686,0.759,1.205,1.199,0.658,0.63,0.729,1.224,1.226
523,0.696,0.285,0.368,0.28,0.393,0.524,0.921,0.295,0.114,0.103
524,0.9,0.598,0.55,0.408,0.632,0.837,0.817,0.637,0.849,0.826
525,0.799,1.003,0.327,0.375,0.136,0.547,0.493,0.304,0.027,0.012
526,0.644,0.304,0.442,0.21,0.196,0.531,0.544,0.406,0.009,0.03
527,0.511,0.404,0.234,1.154,1.198,0.395,0.623,0.2,1.677,1.686
528,0.329,0.409,0.076,0.419,0.494,0.209,0.292,0.111,0.97,0.969
529,0.762,1.031,0.869,0.786,0.608,0.582,0.697,0.991,0.114,0.113
530,0.466,0.857,0.67,0.707,0.663,0.543,0.489,0.947,0.191,0.187
531,0.407,1.089,1.077,0.694,0.636,0.632,0.861,1.412,0.208,0.217
532,0.847,0.511,0.697,0.576,0.767,0.451,0.284,0.463,1.047,1.058
533,0.329,0.625,0.471,0.098,0.065,0.271,0.186,0.276,0.15,0.153
534,0.547,0.802,0.704,0.49,0.126,0.764,0.881,1.023,0.333,0.324
535,1.276,0.732,0.705,0.946,0.904,1.057,0.649,0.655,0.795,0.79
536,0.792,1.027,0.722,0.884,0.894,0.697,0.733,1.123,0.985,0.915
537,0.9,1.097,1.307,1.25,1.242,0.895,0.929,1.467,1.812,1.796
538,0.782,0.461,0.396,0.443,0.397,0.671,0.701,0.12,0.711,0.72
539,0.957,0.433,0.409,0.4,0.312,0.978,0.813,0.614,0.314,0.315
540,0.986,0.414,0.582,1.49,1.472,1.041,0.628,0.71,1.901,1.886
541,0.708,0.296,0.32,0.61,0.485,0.914,0.583,0.317,0.448,0.444
542,0.406,0.394,0.365,0.611,0.603,0.318,0.282,0.082,0.939,0.948
543,0.694,0.822,0.794,0.777,0.924,0.506,0.329,0.902,0.296,0.306
544,0.376,0.529,0.432,0.881,0.673,0.498,0.347,0.618,0.782,0.791
545,0.73,0.391,0.674,1.462,1.596,0.777,0.648,0.836,2.237,2.232
546,0.894,0.509,0.516,0.772,0.745,0.794,0.887,0.721,0.725,0.721
547,0.642,0.679,0.448,0.463,0.705,0.446,0.04,0.378,1.012,1.004
548,0.52,0.638,0.659,0.172,0.365,0.69,0.62,0.733,0.378,0.427
549,0.958,0.591,0.71,0.718,0.625,0.689,0.953,0.305,0.589,0.575
550,0.856,0.462,0.526,0.61,0.732,0.844,1.14,0.887,0.902,0.901
551,0.454,0.552,0.585,0.426,0.341,0.565,0.18,0.705,0.417,0.414
552,0.686,0.748,0.463,0.686,0.313,0.808,0.611,0.825,0.219,0.215
553,0.513,0.489,0.385,0.289,0.449,0.384,0.064,0.492,0.385,0.383
554,0.586,0.025,0.064,0.085,0.094,0.542,0.189,0.121,0.345,0.33
555,0.719,0.532,0.692,1.256,1.093,0.786,0.219,0.505,1.801,1.803
556,0.534,0.868,0.951,0.59,0.741,0.568,0.707,1.216,0.674,0.687
557,0.689,0.754,0.525,0.715,0.958,0.658,0.538,0.359,1.109,1.105
558,1.154,1.385,1.094,1.138,0.975,1.481,1.129,1.651,0.461,0.437
559,0.961,0.671,0.744,0.549,0.725,0.872,0.612,0.516,0.445,0.426
560,0.895,0.645,0.409,0.866,0.818,0.892,0.715,0.661,1.212,1.232
561,0.938,0.701,0.661,1.913,2.085,0.874,0.989,0.703,2.559,2.494
562,0.57,0.704,0.361,0.501,0.478,0.289,0.31,0.821,0.393,0.383
563,0.76,0.623,0.353,0.635,0.923,0.809,0.702,0.796,1.182,1.189
564,0.658,0.503,0.465,0.44,0.491,0.547,0.449,0.467,0.205,0.223
565,0.888,0.44,0.559,1.918,2.004,0.94,0.707,0.631,2.769,2.713
566,1.371,0.963,0.709,1.164,1.285,1.293,1.207,0.694,1.064,1.071
567,0.92,0.974,0.849,1.159,1.437,0.827,0.537,0.809,1.547,1.548
568,0.84,0.775,0.535,1.436,2.127,0.901,0.846,1.132,2.236,2.234
569,0.838,0.745,0.556,1.294,1.647,0.861,0.385,0.882,1.86,1.845
570,1.261,0.865,0.641,2.38,2.426,1.019,0.834,0.813,2.911,2.935
571,1.004,0.829,0.556,0.581,0.592,0.819,0.312,0.406,0.761,0.761
572,0.653,0.272,0.439,0.382,0.269,0.351,0.74,0.15,0.124,0.111
573,0.883,0.635,0.188,0.843,0.733,0.799,1.078,0.221,1.012,1.003
574,0.937,0.629,0.693,0.95,0.661,0.805,0.521,0.47,1.132,1.142
575,1.026,0.603,0.702,0.723,0.673,0.982,1.017,0.924,0.414,0.414
576,0.312,0.164,0.28,0.118,0.039,0.354,0.214,0.55,0.68,0.678
577,0.723,1.148,0.756,0.876,0.598,0.822,0.693,0.849,0.407,0.412
578,0.819,0.903,0.847,0.555,0.578,0.781,0.795,0.849,0.311,0.301
579,0.943,0.972,0.882,1.144,0.997,0.845,0.658,0.971,1.318,1.313
580,1.018,0.723,0.752,0.855,1.111,0.748,0.267,0.848,1.019,1.015
581,0.669,0.033,0.239,1.064,1.105,0.768,0.578,0.503,1.616,1.624
582,0.681,0.726,0.702,0.539,0.728,0.62,0.759,0.792,0.984,0.904
583,0.624,0.587,0.715,0.095,0.005,0.579,1.053,0.351,0.172,0.184
584,1.227,1.073,1.026,2.893,3.332,1.326,1.259,1.059,3.501,3.58
585,0.859,1.062,1.126,1.611,1.46,0.872,0.874,1.124,1.536,1.524
586,0.736,0.248,0.314,0.471,0.486,0.585,0.355,0.244,0.523,0.519
587,1.016,0.493,0.577,1.015,0.94,0.856,0.612,0.897,1.888,1.56
588,0.62,0.305,0.176,0.455,0.748,0.456,0.432,0.364,0.762,0.768
589,0.723,0.52,0.488,0.661,0.721,0.525,0.227,0.261,0.716,0.718
590,0.863,1.252,1.002,0.936,0.814,1.153,0.853,1.067,0.158,0.165
591,0.116,0.39,0.34,0.526,0.4,0.503,0.153,0.421,0.677,0.687
592,0.664,0.223,0.331,0.693,0.9,0.474,0.712,0.63,0.977,1.006
593,0.552,0.741,0.772,0.92,1.024,0.494,0.6,0.841,1.076,1.071
594,0.674,1.137,1.109,1.012,0.912,1.027,0.863,1.205,1.036,1.03
595,1.048,0.964,0.72,0.377,0.758,0.903,0.912,0.788,0.084,0.088
596,0.787,1.071,0.788,1.021,1.053,0.611,0.655,0.219,1.091,1.1
597,0.426,0.267,0.444,0.419,0.399,0.578,0.618,0.462,0.468,0.533
598,0.645,0.86,0.77,0.606,0.722,0.695,0.909,0.701,0.639,0.629
599,0.852,0.544,0.682,0.6,0.646,0.9,1.359,0.731,0.652,0.656
600,0.658,0.372,0.481,0.528,0.497,0.823,0.637,0.165,0.131,0.131
601,0.151,0.444,0.415,0.362,0.3,0.217,0.327,0.268,0.135,0.142
602,0.365,0.434,0.793,0.467,0.176,0.216,0.724,0.856,0.474,0.475
603,0.136,0.779,0.494,0.219,0.14,0.117,0.089,0.047,0.112,0.114
604,0.073,0.007,0.037,0.218,0.001,0.109,0.101,0.013,0.069,0.069
605,0.182,0.083,0.214,0.324,0.142,0.28,0.35,0.246,0.197,0.195
606,0.215,0.288,0.099,0.23,0.116,0.286,0.28,0.642,0.19,0.19
607,0.255,0.162,0.058,0.016,0.016,0.253,0.076,0.023,0.204,0.208
608,0.181,0.618,0.023,0.206,0.143,0.335,0.063,0.334,0.153,0.167
609,0.228,0.133,0.154,0.147,0.089,0.29,0.411,0.117,0.226,0.229
610,0.706,0.432,0.089,0.247,0.642,0.678,0.019,0.248,0.678,0.687
611,0.233,1.049,0.328,0.374,0.202,0.444,0.117,1.119,0.205,0.209
612,0.547,0.547,0.425,0.922,0.483,0.633,1.261,0.16,0.54,0.544
613,0.286,0.163,0.184,0.181,0.15,0.335,0.247,0.166,0.269,0.264
614,0.089,0.159,0.179,0.153,0.244,0.117,0.36,0.109,0.105,0.102
615,0.058,0.749,0.746,0.43,0.305,0.357,0.32,0.781,0.018,0.018
616,0.23,0.074,0.127,0.035,0,0.144,0.228,0.041,0.228,0.232
617,0.239,0.312,0.174,0.267,0.271,0.48,0.596,0.14,0.263,0.257
618,0.022,0.312,0.26,0.255,0.265,0.232,0.304,0.278,0.018,0.024
619,0.134,0.062,0.233,0.313,0.12,0.195,0.257,0,0.12,0.129
620,0.223,0.039,0.145,0.661,0.361,0.33,0.607,0.112,0.195,0.189
621,0.373,0.593,0.638,0.506,0.459,0.385,0.296,0.558,0.383,0.378
622,0.47,0.833,0.883,0.569,0.748,0.364,0.211,0.133,0.474,0.468
623,0.056,0.574,0.139,0.022,0.026,0.187,0.346,0.223,0.033,0.041
624,0.369,0.04,0.064,0.007,0.2,0.24,0.178,0.118,0.388,0.402
625,0.091,0.06,0.117,0.078,0.084,0.169,0.248,0.153,0.037,0.032
626,0.284,0.551,0.203,0.717,0.459,0.371,0.611,0.418,0.314,0.318
627,0.388,0.273,0.402,0.459,0.426,0.313,0.118,0.593,0.45,0.45
628,0.009,0.177,0.192,0.082,0.1,0.133,0.331,0.03,0.025,0.03
629,0.434,0.703,0.376,0.56,0.559,0.546,0.286,0.156,0.442,0.45
630,0.248,0.07,0.165,0.048,0.157,0.258,0.104,0.524,0.22,0.221
631,0.624,1.121,1.029,0.496,0.364,0.853,1.215,0.211,0.639,0.636
632,0.254,0.024,0.168,0.075,0.009,0.039,0.255,0.131,0.22,0.224
633,0.013,0.402,0.04,0.327,0.138,0.08,0.239,0.375,0.002,0.009
634,0.283,0.297,0.228,0.168,0.284,0.247,0.148,0.494,0.317,0.315
635,0.302,0.163,0.036,0.216,0.237,0.421,0.132,0.197,0.252,0.26
636,0.037,0.089,0.082,0.118,0.022,0.026,0.138,0.314,0.039,0.028
637,0.05,0.061,0.058,0.072,0.217,0.108,0.086,0.191,0.024,0.029
638,0.028,0.472,0.49,0.175,0.134,0.335,0.238,0.099,0.008,0.013
639,0.025,0.125,0.535,0.222,0.069,0.004,0.224,0.298,0.01,0.009
640,0.319,0.494,0.406,0.433,0.36,0.236,0.53,0.374,0.307,0.31
641,0.339,0.334,0.23,0.592,0.589,0.503,0.236,0.384,0.33,0.351
642,0.637,0.413,0.413,0.786,0.517,0.565,0.241,0.22,0.623,0.627
643,0.583,0.463,0.304,0.721,0.644,0.474,1.114,0.251,0.567,0.576
644,0.565,0.312,0.385,0.476,0.408,0.442,0.032,0.495,0.624,0.62
645,0.068,0.165,0.253,0.081,0.051,0.041,0.321,0.105,0.101,0.104
646,0.159,0.354,0.471,0.157,0.328,0.228,0.883,0.222,0.068,0.056
647,0.199,0.184,0.032,0.079,0.11,0.115,0.507,0.373,0.178,0.188
648,0.019,0.133,0.126,0.151,0.024,0.122,0.11,0.311,0.054,0.057
649,0.325,0.211,0.243,0.382,0.226,0.281,0.371,0.264,0.307,0.309
650,0.023,0.159,0.051,0.294,0.21,0.111,0.1,0.069,0.033,0.036
651,0.333,0.153,0.025,0.044,0.035,0.069,0.106,0.201,0.275,0.283
652,0.068,0.4,0.018,0.346,0.114,0.09,0.133,0.077,0.082,0.077
653,0.54,1.19,1.097,0.531,0.618,0.634,0.541,0.556,0.539,0.54
654,0.111,0.42,0.368,0.254,0.176,0.207,0.145,0.057,0.144,0.143
655,0.256,0.237,0.357,0.557,0.468,0.507,0.33,0.71,0.288,0.286
656,0.287,0.038,0.092,0.09,0.353,0.245,0.267,0.279,0.282,0.29
657,0.486,0.193,0.163,0.416,0.473,0.214,0.01,0.656,0.471,0.469
658,0.035,0.334,0.16,0.022,0.04,0.039,0.154,0.263,0.026,0.033
659,0.415,0.217,0.186,0.384,0.546,0.349,0.319,0.504,0.44,0.437
660,0.09,0.286,0.231,0.326,0.325,0.177,0.13,0.211,0.069,0.075
661,0.282,0.237,0.041,0.104,0.061,0.184,0.002,0.19,0.242,0.243
662,0.056,0.483,0.481,0.058,0.099,0.236,0.389,0.385,0.055,0.057
663,0.764,1.024,1.102,0.831,0.773,0.462,0.408,0.616,0.791,0.794
664,0.378,0.088,0.03,0.458,0.38,0.207,0.112,0.107,0.399,0.397
665,0.148,0.018,0.093,0.147,0.168,0.155,0.003,0.273,0.242,0.245
666,0.029,0.266,0.26,0.111,0.165,0.163,0.352,0.245,0.005,0.001
667,0.066,0.488,0.03,0.018,0.032,0.203,0.068,0.125,0.048,0.04
668,0.215,0.146,0.02,0.104,0.056,0.225,0.369,0.435,0.355,0.36
669,0.024,0.274,0.209,0.071,0.134,0.031,0.215,0.909,0.039,0.048
670,0.101,0.017,0.461,0.102,0.143,0.278,0.128,0.105,0.113,0.115
671,0.359,0.236,0.049,0.049,0.097,0.301,0.07,0.144,0.343,0.349
672,0.291,0.014,0.06,0.448,0.334,0.317,0.223,0.084,0.259,0.255
673,0.216,0.389,0.399,0.481,0.388,0.279,0.345,0.537,0.228,0.217
674,0.656,0.632,0.555,0.394,0.645,0.528,0.842,0.831,0.629,0.655
675,1.013,0.297,0.041,0.443,0.622,0.879,1.417,0.12,0.996,0.999
676,0.251,0.433,0.312,0.294,0.247,0.359,0.556,0.827,0.273,0.279
677,0.741,1.167,0.701,0.802,1.057,0.817,1.235,0.388,0.725,0.723
678,0.335,0.35,0.154,0.02,0.112,0.151,0.016,0.161,0.289,0.291
679,0.314,0.185,0.193,0.294,0.189,0.508,0.101,0.107,0.261,0.26
680,0.178,0.293,0.138,0.434,0.37,0.009,0.602,0.244,0.075,0.075
681,0.318,0.331,0.247,0.496,0.388,0.255,0.305,0.242,0.297,0.294
682,0.017,0.031,0.196,0.146,0.135,0.067,0.186,0.033,0.049,0.042
683,0.185,0.122,0.133,0.255,0.191,0.036,0.103,0.063,0.187,0.181
684,0.078,0.12,0.129,0.271,0.128,0.087,0.216,0.087,0.09,0.096
685,0.012,0.249,0.519,0.021,0.099,0.104,0.093,0.186,0.003,0.001
686,0.203,0.152,0.127,0.215,0.176,0.02,0.122,0.218,0.245,0.238
687,0.155,0.401,0.62,0.004,0.083,0.172,0.105,0.268,0.208,0.208
688,0.05,0.083,0.178,0.243,0.037,0.036,0.261,0.044,0.017,0.032
689,0.043,0.507,0.514,0.319,0.337,0.127,0.503,0.344,0.056,0.067
690,0.058,0.142,0.05,0.003,0.056,0.055,0.263,0.504,0.087,0.098
691,0.195,0.138,0.156,0.356,0.249,0.253,0.563,0.103,0.193,0.191
692,0.397,0.234,0.186,0.149,0.171,0.175,0.075,0.1,0.369,0.375
693,0.09,0.275,0.103,0.227,0.078,0.007,0.092,0.954,0.14,0.139
694,0.047,0.112,0.062,0.26,0.044,0.092,0.254,0.095,0.016,0.019
695,0.461,0.009,0.09,0.076,0.011,0.012,0.056,0.129,0.544,0.545
696,0.254,1.101,0.464,0.667,0.866,0.38,0.704,0.676,0.198,0.202
697,0.307,0.038,0.023,0.321,0.008,0.074,0.273,0.394,0.286,0.29
698,0.076,0.266,0.01,0.009,0.029,0.024,0.418,0.523,0.074,0.072
699,0.178,0.297,0.348,0.265,0.193,0.353,0.302,0.495,0.192,0.198
700,0.061,0.268,0.199,0.281,0.185,0.109,0.395,0.535,0.14,0.136
701,0.936,0.156,0.321,0.47,0.57,1.285,2.498,0.323,0.93,0.936
702,0.634,0.012,0.168,0.253,0.336,0.5,0.434,0.349,0.62,0.622
703,0.412,0.305,0.206,0.386,0.428,0.365,0.36,0.233,0.357,0.36
704,1.34,0.291,0.327,0.796,1.278,0.711,0.601,0.34,1.322,1.325
705,0.894,0.61,0.151,0.654,0.756,0.278,0.306,0.554,0.884,0.892
706,1.389,0.294,0.026,0.981,1.212,0.918,0.842,0.182,1.405,1.405
707,0.136,0.307,0.396,0.563,0.553,0.185,0.133,0.353,0.07,0.073
708,0.898,0.749,0.501,0.78,0.714,0.556,1.116,0.05,0.904,0.906
709,1.435,1.772,1.129,1.342,0.838,1.692,0.913,0.664,1.417,1.412
710,1.037,0.338,0.094,0.245,0.389,0.997,0.922,0.411,1.034,1.035
711,0.9,0.388,0.355,0.166,0.087,0.234,0.411,0.614,0.865,0.868
712,1.633,0.555,0.143,1.02,1.142,1.098,0.65,0.483,1.488,1.489
713,0.749,0.032,0.439,0.436,0.47,0.691,0.778,0.202,0.747,0.746
714,0.821,0.133,0.063,1.003,0.75,0.406,0.86,0.627,0.83,0.843
715,1.149,0.62,0.171,0.969,0.933,0.73,0.31,0.458,1.139,1.133
716,1.247,0.09,0.26,0.676,0.46,0.373,0.12,0.234,1.29,1.292
717,2.093,0.747,0.445,1.592,1.5,0.924,2.273,0.273,2.096,2.097
718,0.821,0.372,0.069,0.096,0.345,0.209,0.113,0.123,0.833,0.838
719,1.179,0.396,0.03,1.01,0.708,0.408,0.442,0.196,1.302,1.302
720,1.132,0.459,0.271,0.832,0.357,0.581,1.85,0.493,1.075,1.073
721,0.098,0.269,0.149,0.335,0.1,0.365,0.284,0.041,0.155,0.152
722,0.376,0.094,0.216,0.335,0.262,0.001,0.022,0.264,0.368,0.359
723,0.343,0.118,0.073,0.03,0.168,0.349,0.049,0.085,0.412,0.418
724,0.35,0.56,0.221,0.148,0.062,0.192,0.036,0.001,0.337,0.343
725,0.557,0.208,0.113,0.227,0.214,0.199,0.194,0.031,0.565,0.567
726,1.688,0.246,0.345,1.256,1.095,0.776,0.861,0.014,1.701,1.688
727,1.32,0.677,0.747,0.89,0.866,0.852,1.534,0.984,1.338,1.331
728,0.427,0.119,0.08,0.285,0.166,0.264,0.782,0.14,0.384,0.385
729,0.573,0.039,0.168,0.184,0.395,0.598,0.943,0.039,0.546,0.534
730,0.735,0.581,0.233,0.74,0.742,0.001,0.445,0.629,1.064,1.065
731,0.848,0.507,0.321,0.515,0.548,1.164,0.028,0.22,0.831,0.838
732,1.114,0.285,0.084,0.796,0.668,0.134,0.632,0.05,1.063,1.06
733,0.885,0.568,0.751,0.784,0.886,0.481,1.005,0.342,0.915,0.913
734,0.921,0.839,0.452,0.703,0.724,0.679,0.245,0.383,0.93,0.928
735,1.742,0.688,0.525,1.218,1.263,0.991,1.822,0.622,1.747,1.759
736,1.232,0.092,0.332,0.745,0.716,0.552,0.43,0.787,1.219,1.222
737,1.257,0.25,0.162,0.835,0.933,0.615,0.799,0.279,1.235,1.244
738,0.839,0.215,0.194,0.561,0.574,0.563,0.017,0.037,0.802,0.803
739,1.206,0.239,0.221,1.173,1.02,0.983,0.619,0.186,1.195,1.197
740,0.401,0.025,0.083,0.224,0.199,0.236,0.077,0.414,0.423,0.422
741,1.043,0.026,0.01,0.241,0.249,0.338,0.426,0.041,0.962,0.964
742,0.997,0.914,0.951,0.72,0.801,0.751,0.918,1.093,0.933,0.938
743,1.478,0.185,0.154,0.8,0.967,0.88,1.047,0.132,1.463,1.463
744,0.953,0.285,0.019,0.209,0.282,0.936,0.553,0.368,0.846,0.845
745,0.341,0.314,0.345,0.074,0.131,0.428,0.386,0.196,0.256,0.259
746,1.952,0.21,0.355,0.831,1.115,0.731,0.829,0.122,1.941,1.946
747,1.174,0.722,0.579,1.354,1.255,1.291,1.155,0.191,1.163,1.162
748,1.094,0.773,0.402,0.861,0.827,0.961,0.5,0.228,1.107,1.109
749,0.769,0.616,0.461,0.458,0.482,0.524,0.273,0.431,0.737,0.735
750,1.34,0.124,0.142,0.963,0.811,0.838,0.591,0.717,1.209,1.21
751,0.894,0.289,0.367,0.105,0.299,0.572,0.029,0.38,0.823,0.812
752,1.74,0.231,0.058,0.94,0.91,0.926,1.156,0.345,1.686,1.687
753,0.569,0.187,0.053,0.188,0.117,0.149,0.023,0.091,0.449,0.445
754,0.973,0.348,0.135,0.485,0.106,0.761,1.203,0.123,0.937,0.936
755,1.121,0.101,0.048,0.627,0.638,0.906,0.586,0.817,1.088,1.093
756,1.04,0.021,0.146,0.201,0.408,0.204,0.671,0.278,1.011,1.014
757,0.002,0.243,0.037,0.056,0.044,0.042,0.382,0.219,0.019,0.026
758,0.739,0.368,0.135,1.124,1.113,1.218,0.468,0.792,0.725,0.719
759,0.624,0.109,0.008,0.097,0.056,0.35,0.163,0.254,0.613,0.62
760,0.581,0.164,0.235,0.248,0.492,0.168,0.437,0.199,0.474,0.483
761,1.632,0.729,0.846,1.027,1.291,1.072,1.825,0.041,1.66,1.668
762,0.776,0.077,0.078,0.235,0.171,0.541,0.774,0.327,0.789,0.793
763,0.691,0.019,0.327,0.308,0.291,0.543,0.335,0.449,0.645,0.648
764,0.373,0.178,0.079,0.199,0.108,0.226,0.439,0.03,0.323,0.326
765,2.208,0.945,0.637,1.843,1.78,1.414,1.258,0.816,2.198,2.207
766,0.149,0.137,0.28,0.08,0.098,0.111,0.038,0.383,0.123,0.129
767,1.343,0.856,0.898,0.902,0.779,0.978,0.39,1.039,1.331,1.351
768,0.246,0.068,0.076,0.243,0.189,0.123,0.177,0.617,0.312,0.313
769,0.693,0.387,0.341,0.705,0.33,0.323,0.493,0.021,0.647,0.654
770,0.803,0.132,0.089,0.203,0.535,0.124,0.768,0.481,0.781,0.787
771,1.076,0.217,0.151,0.86,0.67,0.36,0.065,0.669,1.026,1.023
772,1.207,0.399,0.041,1.187,1.116,0.96,0.795,0.038,1.346,1.352
773,0.331,0.55,0.427,0.124,0.108,0.106,0.196,0.156,0.298,0.292
774,0.955,0.151,0.333,0.766,0.958,0.726,0.577,0.668,0.892,0.892
775,0.402,0.007,0.247,0.18,0.27,0.008,0.17,0.931,0.418,0.41
776,0.766,0.513,0.489,0.463,0.503,0.466,0.692,0.389,0.764,0.772
777,0.683,0.739,0.664,0.038,0.078,0.35,0.491,0.735,0.673,0.665
778,0.25,0.023,0.014,0.207,0.153,0.228,0.091,0.06,0.154,0.158
779,0.553,0.153,0.291,0.283,0.235,0.006,0.071,0.158,0.525,0.528
780,0.717,0.624,0.612,0.135,0.09,0.017,0.721,1.058,0.693,0.691
781,1.136,0.278,0.024,0.562,0.433,0.502,0.539,0.13,1.124,1.113
782,1.321,0.01,0.247,0.972,0.832,0.247,0.566,0.049,1.29,1.289
783,0.603,0.283,0.472,0.786,0.663,0.262,0.786,0.255,0.632,0.642
784,1.27,0.529,0.239,1.062,0.878,0.769,1.35,0.26,1.238,1.236
785,0.734,0.872,0.707,0.729,0.681,0.549,0.797,0.814,0.706,0.695
786,0.748,0.334,0.317,0.246,0.314,0.476,0.102,0.141,0.74,0.738
787,0.616,0.562,0.133,0.186,0.297,0.147,1.002,0.134,0.657,0.664
788,0.441,0.894,0.888,0.302,0.443,0.025,0.022,0.334,0.482,0.477
789,0.63,0.032,0.286,0.166,0.141,0.394,0.004,0.175,0.627,0.62
790,0.089,0.373,0.165,0.157,0.082,0.027,0.165,0.189,0.07,0.069
791,1.029,0.495,0.466,0.406,0.795,0.078,0.107,0.084,1,1.001
792,1.179,0.168,0.133,0.528,0.886,0.237,0.466,0.182,1.136,1.14
793,0.645,0.492,0.86,0.446,0.563,0.275,0.454,0.432,0.668,0.673
794,0.7,0.607,0.463,0.624,0.669,0.357,0.701,0.475,0.682,0.685
795,0.626,0.446,0.253,0.37,0.348,0.363,0.091,0.078,0.601,0.608
796,0.085,0.782,0.536,0.462,0.471,0.53,0.705,0.138,0.127,0.133
797,0.017,0.245,0.173,0.103,0.019,0.227,0.289,0.193,0.058,0.057
798,0.792,0.424,0.208,0.27,0.166,0.214,0.276,0.025,0.816,0.816
799,0.864,0.778,0.631,1.216,0.84,1.013,0.602,0.968,0.862,0.871
800,0.664,0.561,0.012,0.795,0.753,0.724,0.623,0.621,0.652,0.652
801,1.104,0.487,1.56,0.487,0.423,0.804,0.917,1.105,1.122,1.122
802,0.801,0.517,1.118,0.517,0.257,0.641,0.119,1.296,0.824,0.828
803,1.474,1.593,2.127,1.593,1.587,1.252,0.988,1.272,1.497,1.489
804,0.945,0.96,1.557,0.96,1.03,0.174,1.228,1.947,1.001,1
805,0.476,0.349,0.418,0.349,0.311,0.295,1.761,0.659,0.437,0.436
806,1.483,0.374,0.274,0.374,0.311,1.247,1.176,0.897,1.508,1.51
807,1.599,1.194,1.588,1.194,1.154,1.184,1.258,1.601,1.641,1.646
808,1.265,0.692,1.447,0.692,0.786,0.159,1.428,0.847,1.196,1.194
809,2.935,2.487,1.373,2.487,2.317,2.548,4.75,0.845,2.887,2.881
810,0.352,0.043,1.436,0.043,0.127,0.461,0.06,3.502,0.424,0.411
811,0.021,0.176,0.192,0.176,0.218,0.139,0.146,0.113,0.011,0.004
812,0.027,0.058,0.173,0.058,0.081,0.321,0.235,0.604,0.244,0.244
813,0.538,0.71,0.071,0.71,0.376,1.101,1.466,1.612,0.495,0.487
814,3.468,3.083,0.63,3.083,2.798,1.826,1.117,0.284,3.453,3.447
815,0.278,0.166,0.228,0.166,0.186,0.066,0.466,2.421,0.283,0.299
816,0.047,0.075,1.17,0.075,0.356,0.24,1.241,1.193,0.302,0.309
817,0.546,0.622,0.103,0.622,0.423,0.172,0.969,0.845,0.475,0.481
818,0.172,0.908,0.095,0.908,0.497,0.222,0.229,1.441,0.113,0.1
819,1.841,1.556,0.298,1.556,1.54,1.054,1.134,0.271,1.811,1.808
820,0.933,0.646,0.785,0.646,1.207,0.334,2.471,1.345,0.932,0.946
821,2.407,2.341,2.757,2.341,2.177,1.674,1.002,2.019,2.41,2.405
822,1.295,0.872,0.502,0.872,1.119,0.682,1.726,0.728,1.26,1.269
823,0.772,0.688,1.209,0.688,0.589,0.184,1.42,1.74,0.726,0.729
824,0.92,1.128,0.564,1.128,0.832,2.082,2.512,0.775,0.279,0.28
825,0.073,0.484,0.201,0.484,0.474,1.216,0.162,0.963,0.12,0.117
826,1.492,2.359,3.579,2.359,2.787,3.248,4.26,4.512,1.534,1.533
827,0.215,0.461,0.116,0.461,0.043,0.794,1.484,2.175,0.22,0.214
828,0.205,0.118,0.322,0.118,0.085,0.22,1.239,1.192,0.14,0.141
829,1,1.206,0.942,1.206,1.069,1.282,1.706,1.149,0.989,0.992
830,4.4,3.38,2.91,3.38,3.488,1.151,0.817,1.266,4.389,4.388
831,0.617,0.696,0.31,0.696,0.429,0.957,2.186,0.19,0.926,0.918
832,0.992,0.961,0.063,0.961,0.961,1.705,1.073,0.394,1.136,1.136
833,2.064,1.331,2.107,1.331,1.761,1.857,1.452,0.841,2.054,2.049
834,0.441,0.466,1.268,0.466,0.763,1.5,4.747,2.018,0.471,0.465
835,0.611,0.356,0.427,0.356,0.183,0.001,0.705,1.851,0.72,0.718
836,0.454,0.86,0.063,0.86,0.995,1.842,2.739,1.2,0.483,0.494
837,0.013,0.665,0.747,0.665,0.69,0.466,1.218,0.919,0.008,0.008
838,1.678,1.555,1.758,1.555,1.596,2.415,3.664,0.061,1.653,1.654
839,0.591,0.032,0.172,0.032,0.269,0.632,0.109,1.307,0.55,0.547
840,2.099,1.447,0.013,1.447,1.516,0.478,0.48,0.342,2.093,2.077
841,1.667,1.184,0.789,1.184,0.955,0.737,1.006,1.082,1.65,1.645
842,0.109,0.2,0.12,0.2,0.268,0.237,0.335,0.761,0.124,0.124
843,0.941,1.002,1.863,1.002,1.265,2.168,0.067,1.343,0.867,0.875
844,1.148,1.541,1.214,1.541,1.858,1.808,3.939,3.044,1.151,1.141
845,1.275,1.511,0.722,1.511,1.029,0.153,0.314,0.069,1.287,1.289
846,0.457,0.815,0.681,0.815,0.755,0.189,1.577,1.453,0.391,0.399
847,0.373,0.438,0.16,0.438,0.763,0.217,1.113,0.721,0.414,0.413
848,1.85,2.11,1.355,2.11,2.001,2.098,3.114,0.152,1.907,1.911
849,2.954,2.926,1.951,2.926,3.038,2.596,2.137,2.472,3.019,3.016
850,1.089,0.436,1.25,0.436,0.5,0.325,1.109,1.552,1.111,1.093
851,1.26,1.257,0.664,1.257,1.442,1.372,0.959,0.388,1.303,1.305
852,0.359,0.062,0.61,0.062,0.29,1.022,2.332,0.639,0.377,0.38
853,0.359,0.595,0.248,0.595,0.602,0.318,0.492,0.479,0.424,0.429
854,0.361,0.259,0.394,0.259,0.35,0.861,0.924,1.415,0.419,0.431
855,0.577,0.378,0.331,0.378,0.141,0.896,0.651,1.126,0.689,0.699
856,0.124,0.108,1.226,0.108,0.122,0.71,0.39,1.245,0.094,0.092
857,0.411,0.317,0.172,0.317,0.445,1.341,2.636,4.539,0.403,0.409
858,0.565,0.07,1.364,0.07,0.141,0.118,2.573,0.453,0.619,0.617
859,1.175,1.053,1.607,1.053,0.765,0.934,1.29,0.847,1.153,1.15
860,1.57,1.267,1.189,1.267,1.315,1.001,1.31,1.12,1.512,1.515
861,0.316,0.231,2.185,0.231,0.093,0.301,0.801,2.231,0.325,0.332
862,1.752,1.651,0.151,1.651,1.533,0.935,1.587,0.472,1.804,1.791
863,0.794,0.018,0.738,0.018,0.038,0.119,1.369,0.693,0.758,0.751
864,2.126,1.12,1.087,1.12,1.188,0.799,3.279,1.613,2.117,2.116
865,0.892,1.077,0.523,1.077,1.018,1.409,1.34,1.204,0.873,0.874
866,1.317,1.211,0.385,1.211,1.451,0.522,0.388,1.016,1.334,1.335
867,0.748,0.544,0.856,0.544,0.661,0.311,1.891,2.368,0.792,0.789
868,2.537,2.043,1.353,2.043,2.088,0.85,1.351,2.454,2.496,2.496
869,1.67,0.826,1.589,0.826,0.83,0.999,2.89,1.438,1.671,1.671
870,2.682,2.389,2.36,2.389,1.938,2.184,1.703,2.134,2.687,2.69
871,1.561,1.392,1.552,1.392,1.528,0.908,1.757,0.85,1.513,1.514
872,1.218,1.554,1.768,1.554,1.639,1.982,1.08,1.083,1.258,1.268
873,0.664,0.663,0.19,0.663,0.567,0.101,0.538,0.632,0.621,0.618
874,0.709,1.025,0.205,1.025,1.319,0.807,4.5,1.742,0.725,0.723
875,1.864,1.592,2.377,1.592,1.544,1.352,1.747,1.233,2.041,2.042
876,1.879,1.35,0.911,1.35,1.561,0.102,0.254,1.84,1.883,1.878
877,1.467,2.558,1.153,2.558,2.739,0.581,1.865,3.082,1.539,1.538
878,1.343,1.427,1.123,1.427,0.971,0.97,1.083,1.03,1.334,1.337
879,2.401,2.187,2.324,2.187,1.956,1.934,1.179,1.577,2.405,2.393
880,0.934,0.745,0.595,0.745,0.859,1.026,1.602,0.23,0.933,0.936
881,0.698,0.741,0.05,0.741,2.057,0.452,2.322,0.567,0.613,0.614
882,0.389,0.164,0.861,0.164,0.4,0.636,1.525,1.451,0.413,0.408
883,0.789,0.177,0.755,0.177,0.155,1.053,2.288,0.52,0.757,0.752
884,2.596,2.862,1.193,2.862,2.919,2.83,3.721,0.808,2.632,2.628
885,1.034,0.815,0.21,0.815,0.514,1.057,0.707,1.688,1.029,1.026
886,0.632,1.039,0.893,1.039,0.778,0.83,1.567,1.691,0.748,0.744
887,0.561,0.464,0.731,0.464,0.426,0.594,0.067,1.043,0.581,0.593
888,0.246,0.235,0.685,0.235,0.251,0.824,0.312,0.689,0.274,0.281
889,0.222,0.074,0.827,0.074,0.007,0.502,0.491,0.26,0.203,0.204
890,1.198,0.414,0.141,0.414,1.036,0.501,1.751,0.515,1.164,1.151
891,1.511,0.315,0.425,0.315,0.398,1.438,1.48,0.626,1.543,1.543
892,1.712,1.919,2.138,1.919,1.533,2.313,1.589,1.935,1.235,1.229
893,2.207,0.598,1.168,0.598,0.376,0.022,1.025,2.779,2.218,2.237
894,1.071,0.529,0.012,0.529,0.742,2.15,1.253,0.143,1.068,1.072
895,1.4,1.329,0.141,1.329,1.182,1.542,2.101,2.313,1.45,1.445
896,0.137,0.577,1.198,0.577,0.502,0.316,0.818,1.704,0.11,0.117
897,1.207,0.971,0.885,0.971,0.938,0.17,0.513,0.139,1.258,1.245
898,1.116,0.916,1.336,0.916,1.048,1.439,0.451,2.376,0.812,0.809
899,0.349,0.5,1.491,0.5,0.551,0.722,0.039,0.941,0.35,0.35
900,1.264,1.184,2.205,1.184,1.279,1.876,0.088,2.417,1.273,1.291
901,0.39,0.383,0.279,0.381,0.381,0.337,0.381,0.381,0.265,0.247
902,0.288,0.521,0.213,0.136,0.64,0.301,0.506,0.297,0.183,0.189
903,0.557,0.504,0.402,0.218,0.22,0.596,0.554,0.554,0.486,0.467
904,0.004,0.139,0.153,0.37,0.222,0.112,0.255,0.018,0.21,0.196
905,0.831,1.267,1.358,1.27,1.018,0.601,1.139,0.843,0.868,0.862
906,1.244,0.574,0.254,0.39,0.39,1.159,0.584,1.244,0.847,0.862
907,0.635,0.223,0.427,0.539,0.531,0.6,0.109,0.633,0.549,0.542
908,0.011,0.488,0.541,0.196,0.204,0.024,0.429,0.005,0.02,0.025
909,0.14,0.041,0.25,0.094,0.091,0.071,0.057,0.147,0.247,0.256
910,0.122,0.194,0.284,0.004,0.002,0.326,0.174,0.132,0.227,0.204
911,0.455,0.18,1.02,0.701,0.682,0.53,1.237,0.46,0.558,0.566
912,1.198,0.522,1.28,1.13,0.813,1.294,1.647,1.192,1.144,1.138
913,0.578,0.02,0.075,0.034,0.059,0.035,0.211,0.585,0.637,0.659
914,0.869,0.778,0.523,0.416,0.347,0.851,0.449,0.868,0.847,0.86
915,0.12,0.804,0.208,0.543,0.816,0.016,0.399,0.128,0.153,0.105
916,0.546,0.893,0.786,0.546,0.546,0.659,0.508,0.546,0.465,0.457
917,0.689,0.758,0.754,1.197,1.2,0.851,1.815,0.693,0.615,0.598
918,0.163,0.116,0.104,0.54,0.546,0.097,0.106,0.16,0.067,0.036
919,1.147,1.625,1.422,0.91,0.894,1.129,0.64,1.154,1.407,1.438
920,0.043,0.09,0.254,0.178,0.219,0.025,0.402,0.044,0.207,0.206
921,0.457,0.088,0.476,0.041,0.135,0.406,0.237,0.454,0.568,0.548
922,0.552,0.181,0.154,0.169,0.159,0.637,0.016,0.549,0.318,0.32
923,0.244,0.082,0.441,0.778,1.156,0.135,0.034,0.243,0.283,0.303
924,0.356,0.291,0.259,0.321,0.305,0.017,0.281,0.355,0.384,0.383
925,0.474,0.316,0.247,0.103,0.123,0.356,0.635,0.471,0.387,0.402
926,0.46,1.682,0.049,0.496,0.484,0.505,0.372,0.465,0.553,0.553
927,0.173,0.822,1.074,1.221,1.188,0.46,0.242,0.165,0.232,0.221
928,0.693,1.371,1.479,1.084,1.737,0.827,1.319,0.693,0.733,0.724
929,0.663,0.417,0.194,0.433,0.413,0.233,0.638,0.666,0.585,0.572
930,0.465,0.146,0.407,0.572,0.701,0.337,0.266,0.461,0.507,0.518
931,0.084,0.007,0.163,0.162,0.187,0.055,0.012,0.091,0.226,0.212
932,0.869,0.65,0.274,0.186,0.243,0.702,0.056,0.873,0.848,0.866
933,0.542,0.678,0.308,0.4,0.429,0.002,0.706,0.542,0.429,0.43
934,0.3,0.496,0.18,0.806,0.417,0.312,0.25,0.299,0.467,0.464
935,0.642,0.412,0.393,0.416,0.261,0.012,0.675,0.637,0.651,0.637
936,0.823,0.723,0.266,0.466,0.485,0.709,0.839,0.817,0.957,0.96
937,0.553,1.621,1.689,1.307,1.158,0.665,1.481,0.559,0.577,0.58
938,1.769,1.06,0.34,0.744,1.18,1.637,1.387,1.772,1.765,1.771
939,0.501,0.323,0.284,0.025,0.005,0.147,0.012,0.501,0.352,0.346
940,0.585,0.077,0.288,0.279,0.314,0.686,0.372,0.587,0.443,0.426
941,1.007,0.529,0.593,0.445,0.446,0.677,0.509,1.011,1.113,1.11
942,0.879,0.212,0.217,0.358,0.412,0.44,0.508,0.88,0.621,0.607
943,1.064,0.671,1.335,0.824,0.787,0.732,0.409,1.069,1.086,1.095
944,0.023,0.3,0.051,1.038,0.947,0.049,0.663,0.03,0.039,0.037
945,1.419,1.025,0.929,1.294,1.259,1.079,0.743,1.412,1.404,1.44
946,0.143,0.13,0.484,1.175,1.052,0.012,0.152,0.141,0.218,0.216
947,0.969,0.386,0.216,0.379,0.361,0.593,0.093,0.97,0.918,0.92
948,0.77,1.594,1.516,1.202,1.129,0.83,1.139,0.767,0.752,0.789
949,0.118,0.156,0.286,0.948,0.924,0.14,1.162,0.119,0.135,0.119
950,0.625,1.373,1.398,0.992,1.585,0.692,0.096,0.628,0.731,0.756
951,0.279,0.516,0.447,0.495,0.523,0.308,0.035,0.283,0.337,0.338
952,0.133,0.362,0.374,0.223,0.426,0.186,0.002,0.133,0.252,0.257
953,1.185,0.103,1.405,0.033,0.198,1.141,0.335,1.18,1.206,1.219
954,0.503,0.103,0.167,0.506,0.506,0.558,0.221,0.506,0.52,0.519
955,0.001,1.114,0.013,0.58,0.585,0.002,0.738,0.006,0.048,0.047
956,0.657,1.513,1.437,1.595,1.416,1.281,1.533,0.658,0.896,0.893
957,0.336,0.546,0.304,0.055,0.129,0.513,0.046,0.344,0.171,0.149
958,0.138,0.363,0.234,0.074,0.035,0.169,0.14,0.135,0.353,0.35
959,0.042,0.297,0.244,0.687,0.978,0.101,0.947,0.045,0.028,0.023
960,0.059,0.143,0.288,0.276,0.256,0.096,0.364,0.065,0.039,0.048
961,0.255,0.312,0.168,0.121,0.119,0.51,0.063,0.263,0.253,0.231
962,0.063,0.001,0.287,0.089,0.146,0.559,1.008,0.07,0.125,0.144
963,1.282,0.04,0.443,1.167,1.195,0.585,0.211,1.274,1.302,1.29
964,0.677,0.414,1.327,0.706,0.742,0.664,0.396,0.681,0.786,0.771
965,0.269,0.685,0.345,0.598,0.646,0.028,0.215,0.268,0.284,0.271
966,0.006,0.007,0.119,0.25,0.258,0.102,0.32,0.005,0.109,0.108
967,1.491,1.131,1.564,1.364,1.535,0.952,1.177,1.486,1.531,1.529
968,0.007,0.146,0.407,0.58,0.494,0.137,0.732,0.003,0.068,0.086
969,0.436,0.253,0.138,0.705,0.284,0.314,0.807,0.429,0.387,0.396
970,0.927,1.193,1.068,1.095,1.149,0.865,0.733,0.921,0.849,0.861
971,0.106,0.339,0.301,0.487,0.592,0.102,0.37,0.116,0.12,0.127
972,0.68,0.147,0.301,0.068,0.007,0.556,0.252,0.682,0.654,0.653
973,1.318,2.264,0.007,1.661,1.555,1.243,2.308,1.321,1.505,1.495
974,0.419,0.654,0.353,0.767,0.896,0.442,0.163,0.414,0.54,0.567
975,1.05,0.216,0.272,0.861,1.354,0.828,0.049,1.052,0.991,1
976,0.24,0.641,0.532,0.32,0.226,0.187,0.444,0.233,0.327,0.324
977,0.366,0.958,0.794,0.385,0.424,0.217,0.736,0.36,0.415,0.425
978,0.054,0.513,0.641,0.326,0.443,0.201,0.05,0.051,0.166,0.181
979,0.001,0.077,0.06,0.028,0.005,0.078,0.157,0.005,0.023,0.025
980,2.136,2.044,1.917,2.405,2.429,2.024,2.341,2.135,2.142,2.132
981,0.194,0.099,0.014,0.131,0.133,0.296,0.756,0.187,0.388,0.392
982,0.56,1.095,0.894,0.033,0.34,0.419,0.287,0.566,0.514,0.525
983,0.003,0.125,0.016,1.045,1.124,0.139,0.227,0.003,0.106,0.09
984,0.041,0.012,0.054,0.279,0.005,0.04,0.043,0.043,0.035,0.039
985,0.86,0.13,0.068,0.143,0.213,0.479,0.028,0.859,0.746,0.764
986,0.66,0.461,0.535,0.597,0.618,0.282,0.018,0.645,0.713,0.718
987,0.724,0.157,0.153,0.05,0.058,0.29,0.279,0.728,0.66,0.663
988,0.298,0.162,0.568,0.303,0.297,0.018,0.415,0.295,0.249,0.302
989,0.476,1.492,0.419,0.166,0.102,0.547,1.725,0.476,0.682,0.694
990,0.298,0.043,0.853,0,0.008,0.017,0.259,0.292,0.297,0.301
991,1.031,0.132,0.158,0.222,0.432,1.572,0.3,1.023,1.021,1.003
992,0.062,0.946,0.492,0.607,0.588,0.135,0.159,0.06,0.155,0.147
993,0.323,0.98,0.835,0.745,0.769,0.163,0.607,0.32,0.44,0.434
994,0.534,0.005,0.197,1.473,0.549,0.818,1.4,0.531,0.497,0.463
995,1.994,2.773,2.523,2.015,0.34,1.595,1.176,2.002,1.959,1.957
996,0.245,0.145,0.253,0.123,0.106,0.38,0.313,0.253,0.217,0.228
997,0.578,0.525,0.675,0.207,0.116,0.359,0.43,0.582,0.714,0.694
998,0.35,0.172,0.382,0.539,0.605,0.267,0.068,0.355,0.011,0.01
999,0.651,0.036,0.027,0.15,1.592,1,0.12,0.649,0.715,0.729
1000,0.307,0.684,0.916,0.975,1.027,0.188,0.733,0.305,0.189,0.214
1001,0.77,0.414,1.218,0.329,0.303,0.648,0.598,0.069,0.724,0.73
1002,0.244,0.038,0.155,0.529,0.505,0.329,0.975,0.295,1.059,1.063
1003,0.22,0.353,0.203,0.2,0.263,0.562,0.863,0.518,0.409,0.406
1004,0.334,0.723,0.954,1.026,1.001,0.421,0.556,0.807,1.241,1.24
1005,1.306,1.224,0.534,0.051,0.068,0.851,1.98,0.214,0.048,0.043
1006,0.247,0.116,0.24,0.076,0.064,0.151,0.007,0.846,0.151,0.155
1007,0.689,0.463,0.779,0.306,0.2,0.973,0.714,0.59,0.739,0.74
1008,0.725,0.417,0.26,1.085,1.088,0.792,0.836,0.869,0.985,0.988
1009,1.662,0.672,0.431,2.485,2.462,1.321,1.021,0.443,2.879,2.878
1010,0.426,0.375,0.254,0.672,0.803,0.011,0.23,0.304,0.58,0.578
1011,0.191,0.066,0.302,0.949,0.843,0.033,0.46,0.039,1.616,1.616
1012,1.587,0.738,0.867,0.725,0.689,0.884,0.846,0.441,0.736,0.737
1013,0.424,0.546,0.095,0.068,0.102,0.334,0.474,0.814,0.026,0.026
1014,0.335,0.392,0.192,0.084,0.026,0.119,0.398,0.396,0.256,0.255
1015,0.502,0.372,0.047,0.865,1.029,0.378,0.169,0.293,1.758,1.758
1016,0.551,0.333,0.552,1.06,1.003,0.686,0.67,0.073,1.545,1.547
1017,0.481,0.179,0.463,0.896,0.938,0.116,0,0.847,1.348,1.347
1018,0.749,0.472,0.32,0.08,0.048,0.335,0.244,0.155,0.137,0.143
1019,0.568,0.551,0.484,0.774,0.871,0.713,1.127,0.427,1.29,1.292
1020,0.275,0.248,0.059,0.407,0.455,0.104,0.072,0.172,0.786,0.787
1021,0.942,0.139,0.031,0.456,0.364,0.673,0.813,0.14,0.589,0.59
1022,1.697,0.449,0.461,1.701,1.681,1.143,1.62,0.968,2.375,2.374
1023,1.207,0.296,0.163,0.109,0.098,0.315,0.949,0.992,0.277,0.278
1024,1.471,1.651,0.824,1.924,2.109,1.002,1.429,0.248,2.686,2.687
1025,0.767,0.895,0.721,0.428,0.346,0.728,0.743,0.437,0.359,0.364
1026,0.169,0.491,0.167,0.081,0.049,0.343,0.141,0.112,0.256,0.26
1027,0.017,0.266,0.331,0.032,0.014,0.155,0.119,0.305,0.015,0.012
1028,0.197,0.252,0.17,0.09,0.084,0.274,0.074,0.231,0.241,0.238
1029,1.001,0.779,1.167,1.01,0.945,1.768,1.76,0.865,0.861,0.859
1030,0.738,0.189,0.162,0.012,0.098,0.993,1.223,0.864,0.1,0.103
1031,0.483,0.141,0.199,1.15,1.112,0.077,0.017,0.613,1.687,1.689
1032,0.807,0.535,0.513,1.161,1.171,1.329,1.183,0.263,1.652,1.653
1033,0.06,0.707,0.325,0.004,0.041,0.637,0.527,0.583,0.356,0.355
1034,1.16,0.806,0.68,2.631,2.647,0.567,0.715,0.013,3.163,3.164
1035,0.01,0.373,0.673,1.015,1.034,0.387,0.696,0.888,1.298,1.301
1036,0.018,0.677,0.689,0.121,0.149,0.598,0.01,0.026,0.049,0.05
1037,1.127,0.492,0.309,1.132,1.163,0.152,0.818,0.09,1.609,1.61
1038,0.923,1.155,0.653,1.584,1.573,0.596,0.509,0.754,1.659,1.659
1039,0.331,0.288,0.236,0.964,0.946,0.23,0.145,0.163,1.048,1.05
1040,0.189,0.376,0.444,0.282,0.164,0.096,0.772,0.507,0.035,0.033
1041,0.867,0.433,0.985,0.937,0.956,0.453,0.07,1.213,1.352,1.351
1042,0.459,0.243,0.379,0.522,0.447,0.189,0.598,0.133,1,1.002
1043,0.66,0.896,0.631,0.208,0.276,0.336,0.074,0.239,0.195,0.198
1044,0.185,0.349,0.309,0.473,0.366,0.788,0.884,0.136,0.457,0.458
1045,0.305,0.018,0.598,0.776,0.744,0.261,0.286,0.3,1.198,1.201
1046,0.096,0.291,0.177,1.158,1.187,0.031,0.446,0.224,1.848,1.846
1047,0.97,0.542,0.67,0.016,0.021,0.987,1.056,0.351,0.255,0.256
1048,0.156,0.112,0.069,0.315,0.4,0.103,0.057,0.17,0.595,0.593
1049,0.642,0.161,0.254,0.267,0.286,0.741,0.738,0.126,0.243,0.242
1050,0.522,0.482,0.493,0.523,0.515,0.559,0.364,0.11,0.821,0.829
1051,0.237,0.229,0.202,0.283,0.193,0.332,0.08,0.581,0.583,0.582
1052,0.525,0.498,0.467,1.309,1.308,0.354,0.769,0.826,1.548,1.549
1053,0.16,0.065,0.144,0.447,0.719,0.226,0.289,0.02,1.178,1.178
1054,0.098,0.067,0.228,0.147,0.2,0.282,0.274,0.343,0.108,0.104
1055,0.432,0.432,0.503,1.703,1.835,0.709,0.109,0.703,2.043,2.044
1056,1.469,0.189,0.144,0.718,0.75,0.517,0.57,0.335,0.989,0.983
1057,0.428,0.183,0.287,0.386,0.36,0.901,0.425,0.901,0.206,0.21
1058,0.285,0.572,0.512,0.2,0.186,0.622,0.542,0.069,0.093,0.097
1059,0.606,0.428,0.565,0.151,0.167,0.799,0.472,0.292,0.073,0.072
1060,0.423,0.268,0.123,0.368,0.246,0.08,0.271,0.155,0.482,0.479
1061,0.567,0.661,0.796,2.12,2.128,0.499,0.576,1.558,2.134,2.133
1062,1.082,0.857,0.588,0.45,0.41,0.748,1.127,0.159,0.576,0.577
1063,1.28,0.995,1.098,1.19,1.214,1.492,1.323,0.902,0.984,0.978
1064,0.878,0.834,1.294,1.087,1.088,0.785,0.94,0.799,1.202,1.2
1065,0.831,0.187,0.12,0.551,0.531,0.751,0.707,0.662,0.692,0.691
1066,0.888,1.229,0.786,0.661,0.762,0.9,0.975,1.062,0.648,0.651
1067,0.017,0.048,0.263,0.001,0.045,0.327,0.092,0.356,0.084,0.082
1068,0.441,0.147,0.206,1.318,1.339,0.026,0.255,0.549,2.073,2.071
1069,0.102,0.075,0.112,0.809,0.86,0.076,0.138,0.044,1.468,1.466
1070,1.104,1.266,0.89,0.493,0.472,0.08,0.042,0.074,0.481,0.482
1071,0.451,0.474,0.427,0.34,0.459,0.166,0.612,0.595,0.429,0.429
1072,1.338,0.004,0.073,0.832,0.698,0.459,0.86,0.066,1.179,1.177
1073,0.078,0.197,0.08,0.493,0.481,0.128,0.197,0.786,0.523,0.527
1074,0.341,0.159,0.304,1.367,1.313,0.455,0.234,0.82,1.845,1.853
1075,0.495,0.235,0.407,0.621,0.591,0.119,0.142,0.102,0.915,0.917
1076,0.702,0.03,0.188,1.894,1.884,0.75,0.649,0.409,2.117,2.117
1077,0.922,0.217,0.333,0.461,0.431,0.102,0.092,0.207,0.825,0.824
1078,1.737,0.088,0.545,0.916,0.874,0.389,0.515,0.036,1.329,1.33
1079,0.151,0.176,0.044,0.302,0.286,0.033,0.087,0.601,0.364,0.374
1080,1.975,0.851,0.555,1.501,1.46,1.374,1.821,0.136,1.872,1.873
1081,0.348,1.137,0.904,0.046,0.098,0.24,0.318,1.005,0.003,0.004
1082,0.161,0.229,0.389,0.055,0.044,0.159,0.719,0.461,0.034,0.033
1083,0.096,0.559,0.432,1.348,1.336,0.093,0.096,0.446,2.106,2.114
1084,0.365,1.035,0.672,0.28,0.322,0.258,0.536,1.335,0.007,0.003
1085,0.383,0.181,0.026,0.601,0.592,0.358,0.175,0.426,0.846,0.846
1086,0.155,0.264,0.13,0.908,0.911,0.629,0.383,0.891,1.437,1.436
1087,0.643,0.747,1.47,0.549,0.597,1.185,0.855,0.857,0.348,0.346
1088,0.448,0.255,0.088,0.256,0.262,0.247,0.198,0.222,0.565,0.567
1089,2.136,1,0.903,1.951,1.94,1.885,2.029,0.821,2.682,2.684
1090,0.645,0.671,0.667,0.41,0.418,0.373,0.122,1.077,0.336,0.335
1091,0.871,0.088,0.07,0.371,0.355,0.789,0.612,0.692,0.238,0.241
1092,0.403,0.021,0.333,1.03,1.033,0.044,0.52,0.725,1.704,1.707
1093,0.837,0.223,0.386,0.576,0.698,0.851,1.845,0.976,0.609,0.61
1094,0.422,0.124,0.538,0.338,0.351,0.183,0.427,0.813,0.486,0.484
1095,0.167,0.484,0.688,0.606,0.527,1.024,0.786,0.811,0.783,0.782
1096,0.129,0.338,0.081,0.965,0.937,0.364,0.234,0.294,1.512,1.515
1097,0.931,0.216,0.143,0.416,0.471,0.588,0.738,0.692,0.97,0.971
1098,0.967,0.081,0.232,2.254,2.33,0.169,0.213,0.412,2.865,2.867
1099,0.496,0.212,0.116,0.093,0.074,0.011,1.069,0.191,0.11,0.108
1100,0.777,0.026,0.238,1.583,1.667,0.378,0.978,0.444,1.885,1.884
1101,0.465,0.015,0.224,0.123,0.159,0.176,0.259,0.667,0.115,0.111
1102,0.655,0.259,0.4,0.808,0.702,0.439,0.767,0.206,0.878,0.877
1103,0.248,0.413,0.307,0.298,0.476,0.478,0.554,0.481,0.645,0.642
1104,0.472,0.177,0.112,0.123,0.085,0.124,0.08,0.267,0.193,0.194
1105,0.341,0.32,0.168,1.622,1.657,0.252,0.346,0.101,1.715,1.715
1106,0.246,0.131,0.108,0.021,0.084,0.068,0.066,0.073,0.091,0.089
1107,0.573,0.314,0.088,0.768,0.531,0.354,0.295,0.334,1.027,1.029
1108,1.736,0.465,0.461,1.246,1.288,1.187,1.944,0.815,1.508,1.508
1109,0.059,0.198,0.082,0.151,0.208,0.627,0.06,0.499,0.375,0.37
1110,0.277,0.116,0.011,0.161,0.146,0.127,0.228,0.105,0.338,0.337
1111,0.569,0.054,0.266,0.654,0.696,0.496,0.67,0.153,1.011,1.011
1112,0.117,0.303,0.335,0.005,0.035,0.172,0.137,0.291,0.029,0.029
1113,0.402,0.443,0.226,0.459,0.275,0.376,0.212,0.36,0.489,0.492
1114,0.748,0.728,0.763,0.85,0.878,0.754,0.931,0.846,1.063,1.065
1115,0.627,0.238,0.257,0.842,0.712,0.624,0.871,0.065,1.227,1.228
1116,0.236,0.039,0.018,0.525,0.664,0.483,0.215,0.237,0.821,0.827
1117,0.803,0.523,0.098,0.692,0.643,0.493,0.311,0.062,0.791,0.786
1118,0.521,0.44,0.449,0.421,0.469,0.108,0.129,0.085,1,0.998
1119,0.454,0.482,0.621,0.519,0.518,0.711,0.449,0.833,0.334,0.332
1120,1.026,0.495,0.493,0.819,0.856,0.573,0.428,0.094,0.885,0.885
1121,0.036,0.112,0.12,0.691,0.674,0.052,0.057,0.138,0.798,0.8
1122,0.244,0.007,0.236,0.486,0.482,0.087,0.097,0.327,0.582,0.58
1123,0.501,0.051,0.08,0.216,0.246,0.294,0.136,0.049,0.456,0.455
1124,1.011,0.263,0.201,0.471,0.492,0.535,0.5,0.316,0.502,0.506
1125,0.632,0.164,0.302,0.071,0.017,0.306,0.646,0.87,0.121,0.12
1126,0.619,0.506,0.212,0.626,0.775,0.396,0.396,0.211,0.974,0.973
1127,0.268,0.136,0.178,0.436,0.343,0.01,0.231,0.017,0.822,0.827
1128,0.435,0.061,0.242,0.315,0.276,0.369,0.065,0.242,0.144,0.146
1129,0.292,0.202,0.081,0.121,0.011,0.007,0.118,0.065,0.031,0.025
1130,0.139,0.02,0.05,0.452,0.398,0.12,0.083,0.098,0.904,0.906
1131,0.078,0.332,0.246,0.32,0.17,0.153,0.037,0.421,0.086,0.09
1132,0.113,0.096,0.125,0.391,0.537,0.084,0.27,0.314,0.647,0.646
1133,1.233,0.396,0.141,0.329,0.208,0.548,0.636,0.15,0.212,0.212
1134,0.249,0.419,0.315,1.269,1.195,0.227,0.054,0.304,1.564,1.563
1135,0.716,0.279,0.54,0.178,0.122,0.314,0.039,0.251,0.017,0.015
1136,0.033,0.397,0.072,0.279,0.335,0.146,0.393,0.058,0.352,0.351
1137,0.05,0.023,0.035,0.278,0.182,0.181,0.101,0.131,0.117,0.122
1138,0.499,0.326,0.245,0.602,0.395,0.42,0.478,0.357,0.747,0.742
1139,0.205,0.102,0.04,0.119,0.117,0.081,0.019,0.043,0.228,0.228
1140,0.01,0.022,0.045,0.892,0.774,0.023,0.288,0.241,0.97,0.968
1141,0.379,0.013,0.035,0.055,0.056,0.273,0.246,0.025,0.092,0.096
1142,0.079,0.132,0.133,0.419,0.427,0.04,0.567,0.227,0.568,0.572
1143,0.786,0.44,0.382,0.392,0.469,0.169,0.09,0.572,0.425,0.428
1144,0.596,0.219,0.091,0.177,0.248,0.076,0.283,0.604,0.222,0.221
1145,0.639,0.385,0.363,0.027,0.092,0.4,0.778,0.055,0.046,0.052
1146,0.355,0.246,0.289,0.527,0.533,0.5,0.216,0.31,0.547,0.554
1147,0.236,0.2,0.249,1.368,1.462,0.297,0.355,0.378,1.606,1.611
1148,0.493,0.616,0.447,0.349,0.547,0.296,0.362,0.236,0.585,0.589
1149,0.304,0.075,0.077,0.56,0.742,0.241,0.81,0.169,0.907,0.908
1150,0.32,0.065,0.174,0.924,1.219,0.192,0.231,0.333,1.456,1.456
1151,0.222,0.374,0.009,0.836,0.984,0.185,0.093,0.418,1.065,1.068
1152,0.786,0.332,0.524,0.849,0.902,0.504,0.631,0.237,1.414,1.414
1153,0.856,0.146,0.121,0.363,0.398,0.48,0.539,0.138,0.425,0.424
1154,0.256,0.297,0.037,0.613,0.596,0.082,0.394,0.514,0.631,0.635
1155,0.471,0.264,0.222,0.142,0.107,0.073,0.251,0.242,0.373,0.371
1156,0.417,0.142,0.124,0.285,0.213,0.341,0.384,0.2,0.952,0.954
1157,0.281,0.123,0.077,0.482,0.471,0.205,0.016,0.276,0.642,0.642
1158,0.397,0.181,0.156,0.267,0.32,0.133,0.297,0.11,0.185,0.189
1159,1.036,0.264,0.27,0.609,0.489,0.314,0.686,0.368,0.658,0.657
1160,0.077,0.042,0.163,0.904,0.892,0.016,0.332,0.044,1.151,1.156
1161,0.017,0.389,0.138,0.061,0.04,0.006,0.334,0.481,0.214,0.217
1162,1.31,0.355,0.384,0.741,0.478,0.596,0.979,0.02,1.185,1.184
1163,0.578,0.202,0.218,0.744,0.96,0.463,0.097,0.347,1.122,1.124
1164,0.689,0.536,0.019,0.177,0.399,0.795,0.893,0.585,0.495,0.495
1165,0.363,0.204,0.091,0.209,0.274,0.25,0.384,0.197,0.306,0.306
1166,0.996,0.464,0.214,0.464,0.498,0.187,0.873,0.043,0.65,0.653
1167,0.925,0.417,0.302,1.71,1.67,0.492,0.558,0.503,1.791,1.792
1168,0.267,0.345,0.333,0.07,0.026,0.203,0.064,0.126,0.186,0.186
1169,0.276,0.229,0.3,0.56,0.535,0.1,0.273,0.205,1.17,1.171
1170,0.135,0.049,0.006,0.199,0.391,0.204,0.025,0.023,0.339,0.338
1171,0.376,0.341,0.184,1.074,1.018,0.282,0.576,0.102,1.699,1.698
1172,0.194,0.015,0.148,0.349,0.437,0.214,0.026,0.176,0.479,0.48
1173,0.383,0.008,0.091,0.362,0.453,0.027,0.001,0.464,0.629,0.633
1174,0.1,0.226,0.172,0.448,0.395,0.279,0.453,0.15,0.319,0.315
1175,0.208,0.472,0.58,1.068,1.032,0.22,0.34,0.081,1.273,1.277
1176,0.275,0.003,0.096,0.035,0.065,0.24,0.046,0.548,0.145,0.148
1177,0.664,0.167,0.082,0.335,0.298,0.078,0.047,0.188,0.595,0.598
1178,0.107,0.062,0.141,0.739,0.638,0.534,0.035,0.235,1.037,1.038
1179,0.366,0.58,0.141,0.059,0.075,0.272,0.14,0.296,0.208,0.21
1180,0.278,0.197,0.008,0.246,0.103,0.004,0.413,0.223,0.239,0.239
1181,0.698,0.346,0.662,0.19,0.232,0.295,0.334,0.62,0.058,0.057
1182,0.217,0.536,0.382,1.132,1.067,0.647,0.533,0.619,1.223,1.218
1183,0.603,0.525,0.139,0.372,0.299,0.254,0.03,0.269,0.217,0.214
1184,0.265,0.017,0.188,0.379,0.245,0.044,0.376,0.117,1.595,1.598
1185,0.269,0.089,0.055,0.864,0.929,0.063,0.262,0.062,1.213,1.211
1186,0.316,0.321,0.287,0.348,0.251,0.214,0.17,0.048,0.493,0.492
1187,0.651,0.107,0.036,0.552,0.388,0.61,0.564,0.709,0.301,0.303
1188,0.52,0.282,0.323,0.196,0.161,0.388,0.385,0.071,0.096,0.099
1189,0.348,0.319,0.552,0.024,0.008,0.169,0.399,0.311,0.021,0.018
1190,1.167,0.608,0.532,0.829,0.739,0.42,1.22,0.201,0.885,0.885
1191,0.01,0.354,0.212,0.077,0.08,0.152,0.333,0.397,0.208,0.205
1192,0.149,0.063,0.363,0.632,0.654,0.113,0.212,0.046,0.651,0.652
1193,0.325,0.285,0.005,0.092,0.076,0.111,0.04,0.114,0.084,0.083
1194,0.799,0.147,0.132,1.086,1.26,0.013,0.065,0.154,1.468,1.465
1195,0.242,0.113,0.071,0.357,0.359,0.41,0.412,0.514,0.424,0.423
1196,1.28,0.103,0.211,1.613,1.645,0.602,0.357,0.244,2.048,2.052
1197,0.687,0.193,0.262,0.799,0.782,0.309,0.411,0.017,0.71,0.707
1198,0.831,0.11,0.064,1.53,1.527,0.868,1.05,0.512,1.673,1.673
1199,0.718,0.272,0.353,0.233,0.259,0.583,0.287,0.385,0.175,0.175
1200,0.593,0.048,0.05,0.863,0.855,0.185,0.192,0.155,0.935,0.936
